# Blender v2.82 (sub 7) OBJ File: 'RIGHT_HAND_OBJ.blend'
# www.blender.org
mtllib RIGHT_HAND_OBJ.mtl
o [SPE]_Submesh_@_pos_fix|0x0007D23C[0x0007D240]_OBJECT_OBJECT_[S
v -0.101036 0.030444 -0.190392
v -0.157595 0.082810 -0.168460
v -0.114213 0.077335 -0.203312
v -0.070436 0.087077 0.161416
v -0.084288 0.130490 0.160101
v -0.081042 0.091303 0.168831
v -0.011973 0.126849 0.174720
v -0.230680 0.090282 0.022680
v -0.190553 0.090496 0.170656
v -0.191370 0.128078 0.039286
v -0.083762 0.151015 -0.121057
v -0.034409 0.159826 0.047871
v 0.090586 0.142552 -0.064534
v 0.064809 -0.122686 0.015088
v 0.123507 -0.114907 -0.000631
v 0.144019 -0.092683 0.140590
v 0.182593 -0.065760 0.123153
v 0.016887 -0.069402 -0.016114
v 0.092589 -0.081516 0.136171
v 0.124673 0.124170 0.139249
v 0.055124 0.089999 0.141930
v 0.104135 0.000983 0.097552
v 0.059618 -0.045872 0.123557
v 0.063476 0.057795 0.124232
v 0.139822 0.059316 0.099941
v 0.165347 0.078447 0.105636
v 0.172191 -0.017261 0.097217
v -0.035243 -0.136917 0.026444
v -0.008432 -0.033545 0.010874
v -0.048767 -0.065759 -0.031535
v 0.097231 -0.019733 -0.025604
v 0.074729 -0.053335 -0.055222
v 0.119335 0.001488 -0.038405
v 0.056786 -0.054060 -0.111262
v 0.097334 -0.048948 -0.173781
v 0.076345 -0.084520 -0.076054
v 0.110780 -0.089895 -0.089214
v 0.004276 -0.168382 -0.052698
v 0.014214 -0.073276 0.063532
v 0.046852 -0.157551 0.028069
v 0.136524 0.015104 -0.182725
v -0.082676 0.002341 -0.133567
v -0.037382 0.040135 -0.005742
v -0.139918 -0.002263 -0.037132
v -0.227183 0.089137 -0.096170
v -0.209801 0.020040 -0.081488
v 0.135840 0.063489 0.021598
v 0.095459 0.038940 0.070855
v 0.063955 0.002245 -0.039786
v -0.143777 0.027499 0.102504
v -0.211046 0.032980 0.057471
v 0.125272 0.082343 -0.129069
v 0.000106 0.060924 -0.225739
v 0.008031 0.028289 0.097590
v 0.043856 0.139184 0.137844
v 0.038587 0.099986 0.145442
v 0.144851 -0.054887 -0.034079
v 0.063706 -0.009377 -0.022902
v 0.142447 -0.085158 -0.065744
v 0.132018 -0.028983 -0.024762
v -0.025636 -0.119462 -0.068731
v 0.093640 -0.081909 -0.057483
v 0.121864 0.049356 -0.034528
v 0.104086 0.148910 0.002726
v 0.020251 0.054744 0.127142
v -0.192425 0.055906 0.145389
v -0.124681 0.043406 0.148619
v -0.059879 0.047541 0.144238
v 0.044819 -0.092297 -0.041379
v -0.080703 -0.111629 0.016861
v -0.007485 -0.126664 0.000324
v -0.039940 -0.105427 0.168977
v 0.022619 -0.110366 0.159553
v -0.108249 -0.037904 -0.000198
v -0.074344 -0.031972 0.141084
v -0.013387 0.000398 0.106968
v 0.046135 -0.050605 0.115821
v 0.023094 -0.083095 -0.021187
v -0.032869 -0.020415 -0.015190
v -0.024693 -0.089151 -0.047258
v -0.077442 -0.083187 -0.036329
v -0.156962 -0.096778 0.077572
v -0.101675 -0.099029 0.075858
v -0.152417 -0.067877 0.200926
v -0.086646 -0.078873 0.189069
v -0.085990 -0.045463 0.043592
v -0.082087 0.002905 0.132334
v -0.200917 -0.014169 0.062981
v -0.179683 -0.005888 0.165210
v -0.125129 0.127579 0.168234
v -0.137554 0.018074 0.127801
v -0.134958 0.012258 0.054848
v -0.132999 -0.052749 0.029313
v -0.173139 -0.049236 0.038502
vt 0.313811 0.112240
vt 0.307821 0.165267
vt 0.296614 0.117195
vt 0.161594 0.173364
vt 0.143417 0.172049
vt 0.157035 0.180983
vt 0.170890 0.153700
vt 0.098190 0.216579
vt 0.137439 0.224026
vt 0.108995 0.194250
vt 0.063282 0.135735
vt 0.117422 0.166592
vt 0.095355 0.111365
vt 0.259795 0.099718
vt 0.259746 0.079325
vt 0.225979 0.085532
vt 0.221574 0.070684
vt 0.262244 0.126818
vt 0.222379 0.100756
vt 0.167903 0.098691
vt 0.170607 0.118880
vt 0.513242 0.081259
vt 0.526166 0.113419
vt 0.457866 0.104036
vt 0.453739 0.085273
vt 0.445090 0.061805
vt 0.521022 0.050379
vt 0.437496 0.004476
vt 0.452007 0.030653
vt 0.417732 0.037899
vt 0.434500 0.055019
vt 0.386534 0.057486
vt 0.405491 0.069807
vt 0.352045 0.087330
vt 0.326657 0.072329
vt 0.366078 0.049666
vt 0.353498 0.040482
vt 0.406030 0.000363
vt 0.140483 0.026243
vt 0.158840 0.004370
vt 0.125108 0.013627
vt 0.311581 0.051567
vt 0.350079 0.121523
vt 0.393633 0.144484
vt 0.368766 0.151615
vt 0.334704 0.190755
vt 0.341959 0.155318
vt 0.439424 0.067542
vt 0.437221 0.095668
vt 0.411738 0.095617
vt 0.422479 0.154615
vt 0.384648 0.185784
vt 0.067839 0.087566
vt 0.014063 0.098674
vt 0.437433 0.129887
vt 0.144268 0.127801
vt 0.171286 0.132155
vt 0.555792 0.044216
vt 0.548788 0.080525
vt 0.261359 0.054645
vt 0.219568 0.054549
vt 0.083926 0.031762
vt 0.072956 0.023861
vt 0.027995 0.053684
vt 0.121631 0.063107
vt 0.103420 0.044614
vt 0.118024 0.003021
vt 0.411731 0.018912
vt 0.573805 0.055349
vt 0.124631 0.071510
vt 0.129179 0.098237
vt 0.457154 0.132659
vt 0.428388 0.184298
vt 0.437436 0.165469
vt 0.450722 0.147967
vt 0.457192 0.168782
vt 0.473621 0.123078
vt 0.272640 0.072668
vt 0.277079 0.105002
vt 0.219942 0.118805
vt 0.575406 0.092707
vt 0.560997 0.115747
vt 0.474516 0.112333
vt 0.156617 0.067159
vt 0.141670 0.066764
vt 0.461214 0.162469
vt 0.377887 0.208975
vt 0.010369 0.141330
vt 0.058741 0.192638
vt 0.026627 0.177600
vt 0.271858 0.177088
vt 0.278663 0.145209
vt 0.234432 0.170442
vt 0.236659 0.147196
vt 0.253366 0.185506
vt 0.217808 0.180229
vt 0.513202 0.153376
vt 0.516290 0.179714
vt 0.527172 0.125853
vt 0.560893 0.130761
vt 0.543830 0.152390
vt 0.269810 0.132371
vt 0.227084 0.131650
vt 0.576755 0.156219
vt 0.277614 0.148478
vt 0.274401 0.172384
vt 0.572765 0.185443
vt 0.552055 0.190086
vt 0.217616 0.219235
vt 0.223999 0.200745
vt 0.185942 0.216625
vt 0.200785 0.205282
vt 0.227095 0.187224
vt 0.191593 0.184157
vt 0.205314 0.240529
vt 0.172433 0.232281
vt 0.145912 0.194723
vt 0.479637 0.207071
vt 0.473769 0.228763
vt 0.490623 0.179731
vt 0.541110 0.192901
vt 0.510467 0.211336
vt 0.557476 0.214748
vt 0.244069 0.214887
vt 0.231534 0.232328
vt 0.539570 0.239059
vt 0.500839 0.238684
vt 0.416068 0.209973
vt 0.297746 0.079282
vt 0.152764 0.039229
vt 0.125280 0.050884
vt 0.421279 0.072779
vn -0.3815 -0.6142 -0.6908
vn -0.6616 0.2112 -0.7195
vn -0.3931 0.2406 -0.8875
vn 0.1714 -0.1105 0.9790
vn -0.0239 0.7436 0.6682
vn 0.4105 0.0756 0.9087
vn 0.1081 0.4973 0.8608
vn -0.9645 0.2508 0.0821
vn -0.6608 0.3646 0.6561
vn -0.4559 0.8897 0.0237
vn -0.1397 0.9346 -0.3271
vn -0.0649 0.9958 0.0644
vn 0.5347 0.8042 -0.2597
vn -0.3799 -0.9248 0.0191
vn 0.4619 -0.8386 -0.2886
vn 0.2596 -0.6403 0.7229
vn 0.8798 -0.2764 0.3868
vn -0.9713 -0.0045 -0.2377
vn -0.3954 -0.5204 0.7568
vn 0.4463 0.5918 0.6713
vn -0.0689 -0.1664 0.9837
vn -0.3412 0.6205 -0.7061
vn -0.8880 -0.0713 0.4544
vn -0.6424 -0.7662 -0.0184
vn 0.3442 -0.5687 -0.7470
vn 0.9843 0.1731 0.0356
vn 0.8369 0.3127 -0.4493
vn -0.7312 -0.4617 0.5021
vn -0.4478 0.8509 0.2748
vn -0.8511 0.4459 -0.2771
vn -0.2544 0.9046 0.3420
vn -0.8816 0.3927 -0.2619
vn 0.4131 0.3269 0.8500
vn -0.5573 -0.8299 -0.0255
vn 0.2205 -0.7225 -0.6553
vn -0.5794 -0.1879 -0.7931
vn 0.2478 -0.8067 -0.5365
vn -0.1639 -0.8735 -0.4584
vn -0.0848 0.2531 0.9637
vn 0.3629 -0.7533 0.5485
vn 0.7728 0.0441 -0.6332
vn -0.2376 -0.9636 -0.1228
vn -0.0242 -0.9774 0.2100
vn 0.0015 -0.9868 0.1621
vn -0.8550 0.3464 -0.3860
vn -0.6894 -0.6723 -0.2698
vn 0.9211 -0.3380 -0.1931
vn 0.2664 -0.9449 0.1905
vn -0.0818 -0.7260 0.6828
vn -0.0847 -0.9834 0.1607
vn -0.6564 -0.7265 0.2033
vn 0.7763 0.5572 -0.2949
vn 0.0826 0.2250 -0.9708
vn 0.1118 -0.9633 0.2442
vn 0.2020 0.7614 0.6160
vn 0.4382 -0.0148 0.8988
vn 0.7277 0.1871 -0.6599
vn -0.3049 0.8263 -0.4735
vn 0.8649 -0.5010 -0.0303
vn 0.7513 0.2413 0.6143
vn -0.5996 -0.1517 -0.7858
vn 0.0984 -0.2619 -0.9601
vn 0.9805 -0.1603 0.1141
vn 0.5812 0.8033 -0.1301
vn 0.6156 -0.7265 -0.3055
vn -0.9128 -0.3953 0.1024
vn 0.2110 -0.5625 -0.7994
vn -0.6176 -0.7224 -0.3111
vn -0.4928 -0.4584 -0.7396
vn -0.6538 -0.7525 -0.0795
vn 0.2602 -0.9204 -0.2917
vn -0.3862 -0.5855 0.7128
vn 0.5297 -0.6324 0.5652
vn -0.8560 0.4348 -0.2797
vn -0.9225 0.1769 0.3430
vn -0.0333 0.6802 -0.7322
vn 0.9958 0.0676 -0.0613
vn 0.8250 -0.0371 -0.5640
vn 0.1357 0.8290 -0.5425
vn 0.0905 -0.2483 -0.9644
vn -0.5208 -0.2652 -0.8114
vn -0.4685 -0.8621 -0.1932
vn 0.4578 -0.8469 -0.2704
vn -0.4037 -0.4864 0.7749
vn 0.5809 -0.5546 0.5958
vn 0.7563 0.0076 -0.6541
vn 0.8938 0.3468 -0.2843
vn -0.8841 0.3198 -0.3407
vn -0.9894 -0.0614 0.1314
vn -0.1061 0.7345 0.6703
vn -0.1475 0.8001 -0.5815
vn 0.0597 0.8302 -0.5542
vn 0.0201 -0.1948 -0.9806
vn -0.5507 -0.2218 -0.8047
usemtl [SPE]_Submesh_@_pos_fix|0x0007D23C[0x0007D240]_MAT_mat_gouraud_
s 1
f 1/1/1 2/2/2 3/3/3
f 4/4/4 5/5/5 6/6/6
f 5/5/5 4/4/4 7/7/7
f 8/8/8 9/9/9 10/10/10
f 11/11/11 12/12/12 13/13/13
f 14/14/14 15/15/15 16/16/16
f 16/16/16 15/15/15 17/17/17
f 18/18/18 14/14/14 19/19/19
f 16/16/16 17/17/17 20/20/20
f 21/21/21 19/19/19 20/20/20
f 22/22/22 23/23/23 24/24/24
f 25/25/25 22/22/22 24/24/24
f 25/25/25 26/26/26 27/27/27
f 28/28/28 29/29/29 30/30/30
f 30/30/30 31/31/31 32/32/32
f 32/32/32 31/31/31 33/33/33
f 34/34/34 35/35/35 36/36/36
f 37/37/37 38/38/38 36/36/36
f 39/39/39 28/40/28 40/41/40
f 41/42/41 37/37/37 35/35/35
f 42/43/42 43/44/43 44/45/44
f 45/46/45 1/1/1 46/47/46
f 47/48/47 48/49/48 49/50/49
f 48/49/48 43/44/43 49/50/49
f 50/51/50 51/52/51 43/44/43
f 52/53/52 53/54/53 11/11/11
f 54/55/54 50/51/50 43/44/43
f 55/56/55 56/57/56 21/21/21
f 57/58/57 58/59/58 27/27/27
f 17/17/17 57/60/57 27/61/27
f 59/62/59 37/63/37 41/64/41
f 52/53/52 33/65/33 60/66/60
f 40/41/40 28/40/28 38/67/38
f 28/28/28 30/30/30 61/68/61
f 42/43/42 34/34/34 43/44/43
f 22/22/22 58/59/58 23/23/23
f 58/59/58 57/58/57 62/69/62
f 40/41/40 59/62/59 60/66/60
f 36/36/36 30/30/30 32/32/32
f 40/41/40 37/63/37 59/62/59
f 63/70/63 13/13/13 64/71/64
f 54/55/54 24/24/24 65/72/65
f 48/49/48 47/48/47 25/25/25
f 20/20/20 55/56/55 21/21/21
f 50/51/50 66/73/66 51/52/51
f 44/45/44 51/52/51 46/47/46
f 67/74/67 68/75/68 6/76/6
f 65/72/65 24/24/24 56/77/56
f 62/78/62 15/15/15 14/14/14
f 69/79/69 62/78/62 14/14/14
f 23/80/23 18/18/18 19/19/19
f 58/59/58 62/69/62 69/81/69
f 15/15/15 57/60/57 17/17/17
f 57/60/57 15/15/15 62/78/62
f 23/23/23 58/59/58 18/82/18
f 23/80/23 19/19/19 21/21/21
f 56/77/56 24/24/24 21/83/21
f 24/24/24 23/23/23 21/83/21
f 27/27/27 58/59/58 22/22/22
f 25/25/25 27/27/27 22/22/22
f 26/84/26 17/17/17 27/61/27
f 47/48/47 26/26/26 25/25/25
f 19/19/19 16/16/16 20/20/20
f 19/19/19 14/14/14 16/16/16
f 20/20/20 17/17/17 26/84/26
f 63/70/63 64/71/64 47/85/47
f 6/76/6 68/75/68 4/86/4
f 46/47/46 8/87/8 45/46/45
f 10/10/10 5/5/5 12/12/12
f 12/12/12 5/5/5 55/56/55
f 11/11/11 53/54/53 3/88/3
f 45/89/45 8/8/8 10/10/10
f 2/90/2 11/11/11 3/88/3
f 70/91/70 71/92/71 72/93/72
f 72/93/72 71/92/71 73/94/73
f 74/95/74 70/91/70 75/96/75
f 72/93/72 73/94/73 7/7/7
f 4/4/4 75/96/75 7/7/7
f 76/97/76 75/98/75 68/75/68
f 65/72/65 76/97/76 68/75/68
f 65/72/65 56/77/56 77/99/77
f 78/100/78 79/101/79 77/99/77
f 73/94/73 78/102/78 77/103/77
f 76/97/76 79/101/79 75/98/75
f 79/101/79 78/100/78 80/104/80
f 80/105/80 71/92/71 70/91/70
f 81/106/81 80/105/80 70/91/70
f 79/101/79 80/104/80 81/107/81
f 71/92/71 78/102/78 73/94/73
f 78/102/78 71/92/71 80/105/80
f 75/98/75 79/101/79 74/108/74
f 68/75/68 75/98/75 4/86/4
f 77/99/77 79/101/79 76/97/76
f 65/72/65 77/99/77 76/97/76
f 56/57/56 73/94/73 77/103/77
f 75/96/75 72/93/72 7/7/7
f 75/96/75 70/91/70 72/93/72
f 7/7/7 73/94/73 56/57/56
f 82/109/82 83/110/83 84/111/84
f 85/112/85 86/113/86 87/114/87
f 88/115/88 84/111/84 89/116/89
f 85/112/85 6/6/6 90/117/90
f 9/9/9 84/111/84 90/117/90
f 91/118/91 89/119/89 66/73/66
f 67/74/67 91/118/91 66/73/66
f 67/74/67 6/76/6 87/120/87
f 86/121/86 92/122/92 87/120/87
f 91/118/91 92/122/92 89/119/89
f 92/122/92 86/121/86 93/123/93
f 93/124/93 83/110/83 82/109/82
f 94/125/94 93/124/93 82/109/82
f 88/115/88 82/109/82 84/111/84
f 92/122/92 93/123/93 94/126/94
f 83/110/83 86/113/86 85/112/85
f 86/113/86 83/110/83 93/124/93
f 89/119/89 92/122/92 88/127/88
f 89/116/89 84/111/84 9/9/9
f 66/73/66 89/119/89 9/128/9
f 87/120/87 92/122/92 91/118/91
f 67/74/67 87/120/87 91/118/91
f 84/111/84 85/112/85 90/117/90
f 84/111/84 83/110/83 85/112/85
f 85/112/85 87/114/87 6/6/6
f 60/66/60 41/64/41 52/53/52
f 41/42/41 35/35/35 53/129/53
f 12/12/12 64/71/64 13/13/13
f 64/71/64 12/12/12 55/56/55
f 90/117/90 10/10/10 9/9/9
f 26/84/26 64/71/64 20/20/20
f 64/71/64 55/56/55 20/20/20
f 38/38/38 61/68/61 36/36/36
f 28/28/28 61/68/61 38/38/38
f 29/130/29 39/39/39 60/66/60
f 29/130/29 28/40/28 39/39/39
f 39/39/39 40/41/40 60/66/60
f 66/73/66 9/128/9 8/87/8
f 44/45/44 46/47/46 42/43/42
f 65/72/65 68/75/68 54/55/54
f 46/47/46 51/52/51 8/87/8
f 12/12/12 45/89/45 10/10/10
f 45/89/45 12/12/12 11/11/11
f 3/3/3 53/129/53 1/1/1
f 35/35/35 34/34/34 42/43/42
f 68/75/68 67/74/67 50/51/50
f 67/74/67 66/73/66 50/51/50
f 54/55/54 68/75/68 50/51/50
f 43/44/43 48/49/48 54/55/54
f 24/24/24 48/49/48 25/25/25
f 48/49/48 24/24/24 54/55/54
f 44/45/44 43/44/43 51/52/51
f 51/52/51 66/73/66 8/87/8
f 55/56/55 5/5/5 7/7/7
f 55/56/55 7/7/7 56/57/56
f 10/10/10 90/117/90 5/5/5
f 5/5/5 90/117/90 6/6/6
f 1/1/1 35/35/35 42/43/42
f 1/1/1 42/43/42 46/47/46
f 35/35/35 37/37/37 36/36/36
f 36/36/36 32/32/32 34/34/34
f 36/36/36 61/68/61 30/30/30
f 32/32/32 33/33/33 49/50/49
f 60/66/60 33/65/33 31/131/31
f 58/59/58 69/81/69 18/82/18
f 18/18/18 69/79/69 14/14/14
f 79/101/79 81/107/81 74/108/74
f 74/95/74 81/106/81 70/91/70
f 92/122/92 94/126/94 88/127/88
f 88/115/88 94/125/94 82/109/82
f 63/132/63 47/48/47 49/50/49
f 49/50/49 33/33/33 63/132/63
f 64/71/64 26/84/26 47/85/47
f 52/53/52 13/13/13 63/70/63
f 31/131/31 29/130/29 60/66/60
f 30/30/30 29/29/29 31/31/31
f 60/66/60 59/62/59 41/64/41
f 40/41/40 38/67/38 37/63/37
f 32/32/32 49/50/49 34/34/34
f 49/50/49 43/44/43 34/34/34
f 11/11/11 13/13/13 52/53/52
f 33/65/33 52/53/52 63/70/63
f 45/89/45 11/11/11 2/90/2
f 1/1/1 45/46/45 2/2/2
f 53/129/53 35/35/35 1/1/1
f 52/53/52 41/64/41 53/54/53
