# Blender v2.82 (sub 7) OBJ File: 'lumForHanging.blend'
# www.blender.org
mtllib lumForHanging.mtl
o Torus
v 0.000000 -1.250000 0.000000
v 0.125000 -1.216506 0.000000
v 0.216506 -1.125000 0.000000
v 0.250000 -1.000000 0.000000
v 0.216506 -0.875000 0.000000
v 0.125000 -0.783494 0.000000
v 0.000000 -0.750000 0.000000
v -0.125000 -0.783494 0.000000
v -0.216506 -0.875000 0.000000
v -0.250000 -1.000000 0.000000
v -0.216506 -1.125000 0.000000
v -0.125000 -1.216506 0.000000
v 0.000000 -1.239306 -0.163158
v 0.125000 -1.206099 -0.158786
v 0.216506 -1.115376 -0.146842
v 0.250000 -0.991445 -0.130526
v 0.216506 -0.867514 -0.114210
v 0.125000 -0.776791 -0.102266
v 0.000000 -0.743584 -0.097895
v -0.125000 -0.776791 -0.102266
v -0.216506 -0.867514 -0.114210
v -0.250000 -0.991445 -0.130526
v -0.216506 -1.115376 -0.146842
v -0.125000 -1.206099 -0.158786
v 0.000000 -1.207407 -0.323524
v 0.125000 -1.175055 -0.314855
v 0.216506 -1.086667 -0.291171
v 0.250000 -0.965926 -0.258819
v 0.216506 -0.845185 -0.226467
v 0.125000 -0.756797 -0.202783
v 0.000000 -0.724444 -0.194114
v -0.125000 -0.756797 -0.202783
v -0.216506 -0.845185 -0.226467
v -0.250000 -0.965926 -0.258819
v -0.216506 -1.086667 -0.291171
v -0.125000 -1.175055 -0.314855
v 0.000000 -1.154849 -0.478354
v 0.125000 -1.123905 -0.465537
v 0.216506 -1.039364 -0.430519
v 0.250000 -0.923880 -0.382683
v 0.216506 -0.808395 -0.334848
v 0.125000 -0.723854 -0.299830
v 0.000000 -0.692910 -0.287013
v -0.125000 -0.723854 -0.299830
v -0.216506 -0.808395 -0.334848
v -0.250000 -0.923880 -0.382683
v -0.216506 -1.039364 -0.430519
v -0.125000 -1.123905 -0.465537
v 0.000000 -1.082532 -0.625000
v 0.125000 -1.053525 -0.608253
v 0.216506 -0.974279 -0.562500
v 0.250000 -0.866025 -0.500000
v 0.216506 -0.757772 -0.437500
v 0.125000 -0.678525 -0.391747
v 0.000000 -0.649519 -0.375000
v -0.125000 -0.678525 -0.391747
v -0.216506 -0.757772 -0.437500
v -0.250000 -0.866025 -0.500000
v -0.216506 -0.974279 -0.562500
v -0.125000 -1.053525 -0.608253
v 0.000000 -0.991692 -0.760952
v 0.125000 -0.965119 -0.740562
v 0.216506 -0.892523 -0.684856
v 0.250000 -0.793353 -0.608761
v 0.216506 -0.694184 -0.532666
v 0.125000 -0.621587 -0.476961
v 0.000000 -0.595015 -0.456571
v -0.125000 -0.621587 -0.476961
v -0.216506 -0.694184 -0.532666
v -0.250000 -0.793353 -0.608761
v -0.216506 -0.892523 -0.684856
v -0.125000 -0.965119 -0.740562
v 0.000000 -0.883883 -0.883884
v 0.125000 -0.860200 -0.860200
v 0.216506 -0.795495 -0.795495
v 0.250000 -0.707107 -0.707107
v 0.216506 -0.618718 -0.618719
v 0.125000 -0.554014 -0.554014
v 0.000000 -0.530330 -0.530330
v -0.125000 -0.554014 -0.554014
v -0.216506 -0.618718 -0.618719
v -0.250000 -0.707107 -0.707107
v -0.216506 -0.795495 -0.795495
v -0.125000 -0.860200 -0.860200
v 0.000000 -0.760952 -0.991691
v 0.125000 -0.740562 -0.965119
v 0.216506 -0.684857 -0.892522
v 0.250000 -0.608762 -0.793353
v 0.216506 -0.532666 -0.694184
v 0.125000 -0.476961 -0.621587
v 0.000000 -0.456571 -0.595015
v -0.125000 -0.476961 -0.621587
v -0.216506 -0.532666 -0.694184
v -0.250000 -0.608762 -0.793353
v -0.216506 -0.684857 -0.892522
v -0.125000 -0.740562 -0.965119
v 0.000000 -0.625000 -1.082532
v 0.125000 -0.608253 -1.053525
v 0.216506 -0.562500 -0.974279
v 0.250000 -0.500000 -0.866025
v 0.216506 -0.437500 -0.757772
v 0.125000 -0.391747 -0.678525
v 0.000000 -0.375000 -0.649519
v -0.125000 -0.391747 -0.678525
v -0.216506 -0.437500 -0.757772
v -0.250000 -0.500000 -0.866025
v -0.216506 -0.562500 -0.974279
v -0.125000 -0.608253 -1.053525
v 0.000000 -0.478355 -1.154849
v 0.125000 -0.465537 -1.123905
v 0.216506 -0.430519 -1.039364
v 0.250000 -0.382684 -0.923879
v 0.216506 -0.334848 -0.808394
v 0.125000 -0.299830 -0.723854
v 0.000000 -0.287013 -0.692910
v -0.125000 -0.299830 -0.723854
v -0.216506 -0.334848 -0.808394
v -0.250000 -0.382684 -0.923879
v -0.216506 -0.430519 -1.039364
v -0.125000 -0.465537 -1.123905
v 0.000000 -0.323524 -1.207407
v 0.125000 -0.314855 -1.175055
v 0.216506 -0.291171 -1.086667
v 0.250000 -0.258819 -0.965926
v 0.216506 -0.226467 -0.845185
v 0.125000 -0.202783 -0.756797
v 0.000000 -0.194114 -0.724444
v -0.125000 -0.202783 -0.756797
v -0.216506 -0.226467 -0.845185
v -0.250000 -0.258819 -0.965926
v -0.216506 -0.291171 -1.086667
v -0.125000 -0.314855 -1.175055
v 0.000000 -0.163158 -1.239306
v 0.125000 -0.158786 -1.206099
v 0.216506 -0.146842 -1.115376
v 0.250000 -0.130526 -0.991445
v 0.216506 -0.114210 -0.867514
v 0.125000 -0.102266 -0.776791
v 0.000000 -0.097895 -0.743584
v -0.125000 -0.102266 -0.776791
v -0.216506 -0.114210 -0.867514
v -0.250000 -0.130526 -0.991445
v -0.216506 -0.146842 -1.115376
v -0.125000 -0.158786 -1.206099
v 0.000000 -0.000000 -1.250000
v 0.125000 -0.000000 -1.216506
v 0.216506 -0.000000 -1.125000
v 0.250000 -0.000000 -1.000000
v 0.216506 -0.000000 -0.875000
v 0.125000 -0.000000 -0.783494
v 0.000000 -0.000000 -0.750000
v -0.125000 -0.000000 -0.783494
v -0.216506 -0.000000 -0.875000
v -0.250000 -0.000000 -1.000000
v -0.216506 -0.000000 -1.125000
v -0.125000 -0.000000 -1.216506
v -0.000000 0.163158 -1.239306
v 0.125000 0.158786 -1.206099
v 0.216506 0.146842 -1.115375
v 0.250000 0.130526 -0.991445
v 0.216506 0.114211 -0.867514
v 0.125000 0.102267 -0.776791
v -0.000000 0.097895 -0.743584
v -0.125000 0.102267 -0.776791
v -0.216506 0.114211 -0.867514
v -0.250000 0.130526 -0.991445
v -0.216506 0.146842 -1.115375
v -0.125000 0.158786 -1.206099
v -0.000000 0.323524 -1.207407
v 0.125000 0.314855 -1.175055
v 0.216506 0.291171 -1.086667
v 0.250000 0.258819 -0.965926
v 0.216506 0.226467 -0.845185
v 0.125000 0.202783 -0.756797
v -0.000000 0.194114 -0.724444
v -0.125000 0.202783 -0.756797
v -0.216506 0.226467 -0.845185
v -0.250000 0.258819 -0.965926
v -0.216506 0.291171 -1.086667
v -0.125000 0.314855 -1.175055
v -0.000000 0.478354 -1.154849
v 0.125000 0.465537 -1.123905
v 0.216506 0.430519 -1.039364
v 0.250000 0.382684 -0.923880
v 0.216506 0.334848 -0.808395
v 0.125000 0.299830 -0.723854
v -0.000000 0.287013 -0.692910
v -0.125000 0.299830 -0.723854
v -0.216506 0.334848 -0.808395
v -0.250000 0.382683 -0.923880
v -0.216506 0.430519 -1.039364
v -0.125000 0.465537 -1.123905
v -0.000000 0.625000 -1.082532
v 0.125000 0.608253 -1.053526
v 0.216506 0.562500 -0.974279
v 0.250000 0.500000 -0.866026
v 0.216506 0.437500 -0.757772
v 0.125000 0.391747 -0.678525
v -0.000000 0.375000 -0.649519
v -0.125000 0.391747 -0.678525
v -0.216506 0.437500 -0.757772
v -0.250000 0.500000 -0.866026
v -0.216506 0.562500 -0.974279
v -0.125000 0.608253 -1.053526
v -0.000000 0.760952 -0.991692
v 0.125000 0.740562 -0.965119
v 0.216506 0.684857 -0.892522
v 0.250000 0.608761 -0.793353
v 0.216506 0.532666 -0.694184
v 0.125000 0.476961 -0.621587
v -0.000000 0.456571 -0.595015
v -0.125000 0.476961 -0.621587
v -0.216506 0.532666 -0.694184
v -0.250000 0.608761 -0.793353
v -0.216506 0.684857 -0.892522
v -0.125000 0.740562 -0.965119
v -0.000000 0.883884 -0.883883
v 0.125000 0.860200 -0.860200
v 0.216506 0.795495 -0.795495
v 0.250000 0.707107 -0.707107
v 0.216506 0.618719 -0.618718
v 0.125000 0.554014 -0.554013
v -0.000000 0.530330 -0.530330
v -0.125000 0.554014 -0.554013
v -0.216506 0.618719 -0.618718
v -0.250000 0.707107 -0.707107
v -0.216506 0.795495 -0.795495
v -0.125000 0.860200 -0.860200
v -0.000000 0.991692 -0.760952
v 0.125000 0.965119 -0.740562
v 0.216506 0.892522 -0.684857
v 0.250000 0.793353 -0.608761
v 0.216506 0.694184 -0.532666
v 0.125000 0.621587 -0.476961
v -0.000000 0.595015 -0.456571
v -0.125000 0.621587 -0.476961
v -0.216506 0.694184 -0.532666
v -0.250000 0.793353 -0.608761
v -0.216506 0.892522 -0.684857
v -0.125000 0.965119 -0.740562
v -0.000000 1.082532 -0.625000
v 0.125000 1.053525 -0.608253
v 0.216506 0.974278 -0.562500
v 0.250000 0.866025 -0.500000
v 0.216506 0.757772 -0.437500
v 0.125000 0.678525 -0.391747
v -0.000000 0.649519 -0.375000
v -0.125000 0.678525 -0.391747
v -0.216506 0.757772 -0.437500
v -0.250000 0.866025 -0.500000
v -0.216506 0.974278 -0.562500
v -0.125000 1.053525 -0.608253
v -0.000000 1.154849 -0.478354
v 0.125000 1.123905 -0.465537
v 0.216506 1.039364 -0.430519
v 0.250000 0.923880 -0.382683
v 0.216506 0.808395 -0.334848
v 0.125000 0.723854 -0.299830
v -0.000000 0.692910 -0.287013
v -0.125000 0.723854 -0.299830
v -0.216506 0.808395 -0.334848
v -0.250000 0.923880 -0.382683
v -0.216506 1.039364 -0.430519
v -0.125000 1.123905 -0.465537
v -0.000000 1.207407 -0.323524
v 0.125000 1.175055 -0.314855
v 0.216506 1.086667 -0.291171
v 0.250000 0.965926 -0.258819
v 0.216506 0.845185 -0.226467
v 0.125000 0.756797 -0.202783
v -0.000000 0.724444 -0.194114
v -0.125000 0.756797 -0.202783
v -0.216506 0.845185 -0.226467
v -0.250000 0.965926 -0.258819
v -0.216506 1.086667 -0.291171
v -0.125000 1.175055 -0.314855
v -0.000000 1.239306 -0.163158
v 0.125000 1.206099 -0.158786
v 0.216506 1.115375 -0.146842
v 0.250000 0.991445 -0.130526
v 0.216506 0.867514 -0.114211
v 0.125000 0.776791 -0.102267
v -0.000000 0.743584 -0.097895
v -0.125000 0.776791 -0.102267
v -0.216506 0.867514 -0.114211
v -0.250000 0.991445 -0.130526
v -0.216506 1.115375 -0.146842
v -0.125000 1.206099 -0.158786
v -0.000000 1.250000 -0.000000
v 0.125000 1.216506 -0.000000
v 0.216506 1.125000 -0.000000
v 0.250000 1.000000 -0.000000
v 0.216506 0.875000 -0.000000
v 0.125000 0.783494 -0.000000
v -0.000000 0.750000 -0.000000
v -0.125000 0.783494 -0.000000
v -0.216506 0.875000 -0.000000
v -0.250000 1.000000 -0.000000
v -0.216506 1.125000 -0.000000
v -0.125000 1.216506 -0.000000
v -0.000000 1.239306 0.163158
v 0.125000 1.206099 0.158786
v 0.216506 1.115375 0.146842
v 0.250000 0.991445 0.130526
v 0.216506 0.867514 0.114211
v 0.125000 0.776791 0.102267
v -0.000000 0.743584 0.097895
v -0.125000 0.776791 0.102267
v -0.216506 0.867514 0.114211
v -0.250000 0.991445 0.130526
v -0.216506 1.115375 0.146842
v -0.125000 1.206099 0.158786
v -0.000000 1.207407 0.323524
v 0.125000 1.175055 0.314855
v 0.216506 1.086667 0.291171
v 0.250000 0.965926 0.258819
v 0.216506 0.845185 0.226467
v 0.125000 0.756797 0.202783
v -0.000000 0.724444 0.194114
v -0.125000 0.756797 0.202783
v -0.216506 0.845185 0.226467
v -0.250000 0.965926 0.258819
v -0.216506 1.086667 0.291171
v -0.125000 1.175055 0.314855
v -0.000000 1.154850 0.478354
v 0.125000 1.123906 0.465536
v 0.216506 1.039365 0.430518
v 0.250000 0.923880 0.382683
v 0.216506 0.808395 0.334848
v 0.125000 0.723854 0.299830
v -0.000000 0.692910 0.287012
v -0.125000 0.723854 0.299830
v -0.216506 0.808395 0.334848
v -0.250000 0.923880 0.382683
v -0.216506 1.039365 0.430518
v -0.125000 1.123906 0.465536
v -0.000000 1.082532 0.625000
v 0.125000 1.053526 0.608253
v 0.216506 0.974279 0.562500
v 0.250000 0.866026 0.500000
v 0.216506 0.757772 0.437500
v 0.125000 0.678525 0.391747
v -0.000000 0.649519 0.375000
v -0.125000 0.678525 0.391747
v -0.216506 0.757772 0.437500
v -0.250000 0.866026 0.500000
v -0.216506 0.974279 0.562500
v -0.125000 1.053526 0.608253
v -0.000000 0.991692 0.760952
v 0.125000 0.965119 0.740562
v 0.216506 0.892522 0.684857
v 0.250000 0.793353 0.608761
v 0.216506 0.694184 0.532666
v 0.125000 0.621587 0.476961
v -0.000000 0.595015 0.456571
v -0.125000 0.621587 0.476961
v -0.216506 0.694184 0.532666
v -0.250000 0.793353 0.608761
v -0.216506 0.892522 0.684857
v -0.125000 0.965119 0.740562
v -0.000000 0.883884 0.883883
v 0.125000 0.860200 0.860200
v 0.216506 0.795495 0.795495
v 0.250000 0.707107 0.707107
v 0.216506 0.618719 0.618718
v 0.125000 0.554014 0.554013
v -0.000000 0.530330 0.530330
v -0.125000 0.554014 0.554013
v -0.216506 0.618719 0.618718
v -0.250000 0.707107 0.707107
v -0.216506 0.795495 0.795495
v -0.125000 0.860200 0.860200
v -0.000000 0.760952 0.991691
v 0.125000 0.740563 0.965119
v 0.216506 0.684857 0.892522
v 0.250000 0.608762 0.793353
v 0.216506 0.532667 0.694184
v 0.125000 0.476961 0.621587
v -0.000000 0.456571 0.595015
v -0.125000 0.476961 0.621587
v -0.216506 0.532667 0.694184
v -0.250000 0.608762 0.793353
v -0.216506 0.684857 0.892522
v -0.125000 0.740563 0.965119
v -0.000000 0.625000 1.082532
v 0.125000 0.608253 1.053526
v 0.216506 0.562500 0.974279
v 0.250000 0.500000 0.866026
v 0.216506 0.437500 0.757772
v 0.125000 0.391747 0.678525
v -0.000000 0.375000 0.649519
v -0.125000 0.391747 0.678525
v -0.216506 0.437500 0.757772
v -0.250000 0.500000 0.866026
v -0.216506 0.562500 0.974279
v -0.125000 0.608253 1.053526
v -0.000000 0.478354 1.154849
v 0.125000 0.465537 1.123905
v 0.216506 0.430519 1.039364
v 0.250000 0.382684 0.923880
v 0.216506 0.334848 0.808395
v 0.125000 0.299830 0.723854
v -0.000000 0.287013 0.692910
v -0.125000 0.299830 0.723854
v -0.216506 0.334848 0.808395
v -0.250000 0.382683 0.923880
v -0.216506 0.430519 1.039364
v -0.125000 0.465537 1.123905
v -0.000000 0.323524 1.207407
v 0.125000 0.314855 1.175055
v 0.216506 0.291172 1.086666
v 0.250000 0.258819 0.965926
v 0.216506 0.226467 0.845185
v 0.125000 0.202783 0.756797
v -0.000000 0.194115 0.724444
v -0.125000 0.202783 0.756797
v -0.216506 0.226467 0.845185
v -0.250000 0.258819 0.965926
v -0.216506 0.291172 1.086666
v -0.125000 0.314855 1.175055
v -0.000000 0.163158 1.239306
v 0.125000 0.158787 1.206099
v 0.216506 0.146843 1.115375
v 0.250000 0.130527 0.991445
v 0.216506 0.114211 0.867514
v 0.125000 0.102267 0.776791
v -0.000000 0.097895 0.743584
v -0.125000 0.102267 0.776791
v -0.216506 0.114211 0.867514
v -0.250000 0.130527 0.991445
v -0.216506 0.146843 1.115375
v -0.125000 0.158787 1.206099
v 0.000000 -0.000000 1.250000
v 0.125000 -0.000000 1.216506
v 0.216506 -0.000000 1.125000
v 0.250000 -0.000000 1.000000
v 0.216506 -0.000000 0.875000
v 0.125000 -0.000000 0.783494
v 0.000000 -0.000000 0.750000
v -0.125000 -0.000000 0.783494
v -0.216506 -0.000000 0.875000
v -0.250000 -0.000000 1.000000
v -0.216506 -0.000000 1.125000
v -0.125000 -0.000000 1.216506
v 0.000000 -0.163158 1.239306
v 0.125000 -0.158786 1.206099
v 0.216506 -0.146842 1.115376
v 0.250000 -0.130526 0.991445
v 0.216506 -0.114210 0.867514
v 0.125000 -0.102266 0.776791
v 0.000000 -0.097895 0.743584
v -0.125000 -0.102266 0.776791
v -0.216506 -0.114210 0.867514
v -0.250000 -0.130526 0.991445
v -0.216506 -0.146842 1.115376
v -0.125000 -0.158786 1.206099
v 0.000000 -0.323523 1.207407
v 0.125000 -0.314854 1.175055
v 0.216506 -0.291171 1.086667
v 0.250000 -0.258819 0.965926
v 0.216506 -0.226466 0.845185
v 0.125000 -0.202783 0.756797
v 0.000000 -0.194114 0.724444
v -0.125000 -0.202783 0.756797
v -0.216506 -0.226466 0.845185
v -0.250000 -0.258819 0.965926
v -0.216506 -0.291171 1.086667
v -0.125000 -0.314854 1.175055
v 0.000000 -0.478355 1.154849
v 0.125000 -0.465537 1.123905
v 0.216506 -0.430519 1.039364
v 0.250000 -0.382684 0.923879
v 0.216506 -0.334848 0.808394
v 0.125000 -0.299830 0.723854
v 0.000000 -0.287013 0.692910
v -0.125000 -0.299830 0.723854
v -0.216506 -0.334848 0.808394
v -0.250000 -0.382684 0.923879
v -0.216506 -0.430519 1.039364
v -0.125000 -0.465537 1.123905
v 0.000000 -0.625000 1.082532
v 0.125000 -0.608253 1.053525
v 0.216506 -0.562500 0.974279
v 0.250000 -0.500000 0.866025
v 0.216506 -0.437500 0.757772
v 0.125000 -0.391747 0.678525
v 0.000000 -0.375000 0.649519
v -0.125000 -0.391747 0.678525
v -0.216506 -0.437500 0.757772
v -0.250000 -0.500000 0.866025
v -0.216506 -0.562500 0.974279
v -0.125000 -0.608253 1.053525
v 0.000000 -0.760952 0.991692
v 0.125000 -0.740562 0.965120
v 0.216506 -0.684856 0.892523
v 0.250000 -0.608761 0.793353
v 0.216506 -0.532666 0.694184
v 0.125000 -0.476961 0.621587
v 0.000000 -0.456571 0.595015
v -0.125000 -0.476961 0.621587
v -0.216506 -0.532666 0.694184
v -0.250000 -0.608761 0.793353
v -0.216506 -0.684856 0.892523
v -0.125000 -0.740562 0.965120
v 0.000000 -0.883883 0.883884
v 0.125000 -0.860199 0.860200
v 0.216506 -0.795495 0.795496
v 0.250000 -0.707106 0.707107
v 0.216506 -0.618718 0.618719
v 0.125000 -0.554013 0.554014
v 0.000000 -0.530330 0.530330
v -0.125000 -0.554013 0.554014
v -0.216506 -0.618718 0.618719
v -0.250000 -0.707106 0.707107
v -0.216506 -0.795495 0.795496
v -0.125000 -0.860199 0.860200
v 0.000000 -0.991692 0.760952
v 0.125000 -0.965119 0.740562
v 0.216506 -0.892523 0.684856
v 0.250000 -0.793353 0.608761
v 0.216506 -0.694184 0.532666
v 0.125000 -0.621587 0.476961
v 0.000000 -0.595015 0.456571
v -0.125000 -0.621587 0.476961
v -0.216506 -0.694184 0.532666
v -0.250000 -0.793353 0.608761
v -0.216506 -0.892523 0.684856
v -0.125000 -0.965119 0.740562
v 0.000000 -1.082532 0.625000
v 0.125000 -1.053525 0.608253
v 0.216506 -0.974279 0.562500
v 0.250000 -0.866025 0.500000
v 0.216506 -0.757772 0.437500
v 0.125000 -0.678525 0.391747
v 0.000000 -0.649519 0.375000
v -0.125000 -0.678525 0.391747
v -0.216506 -0.757772 0.437500
v -0.250000 -0.866025 0.500000
v -0.216506 -0.974279 0.562500
v -0.125000 -1.053525 0.608253
v 0.000000 -1.154849 0.478355
v 0.125000 -1.123905 0.465537
v 0.216506 -1.039364 0.430519
v 0.250000 -0.923879 0.382684
v 0.216506 -0.808394 0.334848
v 0.125000 -0.723854 0.299830
v 0.000000 -0.692910 0.287013
v -0.125000 -0.723854 0.299830
v -0.216506 -0.808394 0.334848
v -0.250000 -0.923879 0.382684
v -0.216506 -1.039364 0.430519
v -0.125000 -1.123905 0.465537
v 0.000000 -1.207407 0.323523
v 0.125000 -1.175055 0.314855
v 0.216506 -1.086667 0.291171
v 0.250000 -0.965926 0.258819
v 0.216506 -0.845185 0.226466
v 0.125000 -0.756797 0.202783
v 0.000000 -0.724444 0.194114
v -0.125000 -0.756797 0.202783
v -0.216506 -0.845185 0.226466
v -0.250000 -0.965926 0.258819
v -0.216506 -1.086667 0.291171
v -0.125000 -1.175055 0.314855
v 0.000000 -1.239306 0.163158
v 0.125000 -1.206099 0.158786
v 0.216506 -1.115376 0.146842
v 0.250000 -0.991445 0.130526
v 0.216506 -0.867514 0.114210
v 0.125000 -0.776791 0.102266
v 0.000000 -0.743584 0.097895
v -0.125000 -0.776791 0.102266
v -0.216506 -0.867514 0.114210
v -0.250000 -0.991445 0.130526
v -0.216506 -1.115376 0.146842
v -0.125000 -1.206099 0.158786
vt 0.500000 0.500000
vt 0.520833 0.500000
vt 0.520833 0.583333
vt 0.500000 0.583333
vt 0.520833 0.666667
vt 0.500000 0.666667
vt 0.520833 0.750000
vt 0.500000 0.750000
vt 0.520833 0.833333
vt 0.500000 0.833333
vt 0.520833 0.916667
vt 0.500000 0.916667
vt 0.520833 1.000000
vt 0.500000 1.000000
vt 0.500000 0.000000
vt 0.520833 0.000000
vt 0.520833 0.083333
vt 0.500000 0.083333
vt 0.520833 0.166667
vt 0.500000 0.166667
vt 0.520833 0.250000
vt 0.500000 0.250000
vt 0.520833 0.333333
vt 0.500000 0.333333
vt 0.520833 0.416667
vt 0.500000 0.416667
vt 0.541667 0.500000
vt 0.541667 0.583333
vt 0.541667 0.666667
vt 0.541667 0.750000
vt 0.541667 0.833333
vt 0.541667 0.916667
vt 0.541667 1.000000
vt 0.541667 0.000000
vt 0.541667 0.083333
vt 0.541667 0.166667
vt 0.541667 0.250000
vt 0.541667 0.333333
vt 0.541667 0.416667
vt 0.562500 0.500000
vt 0.562500 0.583333
vt 0.562500 0.666667
vt 0.562500 0.750000
vt 0.562500 0.833333
vt 0.562500 0.916667
vt 0.562500 1.000000
vt 0.562500 0.000000
vt 0.562500 0.083333
vt 0.562500 0.166667
vt 0.562500 0.250000
vt 0.562500 0.333333
vt 0.562500 0.416667
vt 0.583333 0.500000
vt 0.583333 0.583333
vt 0.583333 0.666667
vt 0.583333 0.750000
vt 0.583333 0.833333
vt 0.583333 0.916667
vt 0.583333 1.000000
vt 0.583333 0.000000
vt 0.583333 0.083333
vt 0.583333 0.166667
vt 0.583333 0.250000
vt 0.583333 0.333333
vt 0.583333 0.416667
vt 0.604167 0.500000
vt 0.604167 0.583333
vt 0.604167 0.666667
vt 0.604167 0.750000
vt 0.604167 0.833333
vt 0.604167 0.916667
vt 0.604167 1.000000
vt 0.604167 0.000000
vt 0.604167 0.083333
vt 0.604167 0.166667
vt 0.604167 0.250000
vt 0.604167 0.333333
vt 0.604167 0.416667
vt 0.625000 0.500000
vt 0.625000 0.583333
vt 0.625000 0.666667
vt 0.625000 0.750000
vt 0.625000 0.833333
vt 0.625000 0.916667
vt 0.625000 1.000000
vt 0.625000 0.000000
vt 0.625000 0.083333
vt 0.625000 0.166667
vt 0.625000 0.250000
vt 0.625000 0.333333
vt 0.625000 0.416667
vt 0.645833 0.500000
vt 0.645833 0.583333
vt 0.645833 0.666667
vt 0.645833 0.750000
vt 0.645833 0.833333
vt 0.645833 0.916667
vt 0.645833 1.000000
vt 0.645833 0.000000
vt 0.645833 0.083333
vt 0.645833 0.166667
vt 0.645833 0.250000
vt 0.645833 0.333333
vt 0.645833 0.416667
vt 0.666667 0.500000
vt 0.666667 0.583333
vt 0.666667 0.666667
vt 0.666667 0.750000
vt 0.666667 0.833333
vt 0.666667 0.916667
vt 0.666667 1.000000
vt 0.666667 0.000000
vt 0.666667 0.083333
vt 0.666667 0.166667
vt 0.666667 0.250000
vt 0.666667 0.333333
vt 0.666667 0.416667
vt 0.687500 0.500000
vt 0.687500 0.583333
vt 0.687500 0.666667
vt 0.687500 0.750000
vt 0.687500 0.833333
vt 0.687500 0.916667
vt 0.687500 1.000000
vt 0.687500 0.000000
vt 0.687500 0.083333
vt 0.687500 0.166667
vt 0.687500 0.250000
vt 0.687500 0.333333
vt 0.687500 0.416667
vt 0.708333 0.500000
vt 0.708333 0.583333
vt 0.708333 0.666667
vt 0.708333 0.750000
vt 0.708333 0.833333
vt 0.708333 0.916667
vt 0.708333 1.000000
vt 0.708333 0.000000
vt 0.708333 0.083333
vt 0.708333 0.166667
vt 0.708333 0.250000
vt 0.708333 0.333333
vt 0.708333 0.416667
vt 0.729167 0.500000
vt 0.729167 0.583333
vt 0.729167 0.666667
vt 0.729167 0.750000
vt 0.729167 0.833333
vt 0.729167 0.916667
vt 0.729167 1.000000
vt 0.729167 0.000000
vt 0.729167 0.083333
vt 0.729167 0.166667
vt 0.729167 0.250000
vt 0.729167 0.333333
vt 0.729167 0.416667
vt 0.750000 0.500000
vt 0.750000 0.583333
vt 0.750000 0.666667
vt 0.750000 0.750000
vt 0.750000 0.833333
vt 0.750000 0.916667
vt 0.750000 1.000000
vt 0.750000 0.000000
vt 0.750000 0.083333
vt 0.750000 0.166667
vt 0.750000 0.250000
vt 0.750000 0.333333
vt 0.750000 0.416667
vt 0.770833 0.500000
vt 0.770833 0.583333
vt 0.770833 0.666667
vt 0.770833 0.750000
vt 0.770833 0.833333
vt 0.770833 0.916667
vt 0.770833 1.000000
vt 0.770833 0.000000
vt 0.770833 0.083333
vt 0.770833 0.166667
vt 0.770833 0.250000
vt 0.770833 0.333333
vt 0.770833 0.416667
vt 0.791667 0.500000
vt 0.791667 0.583333
vt 0.791667 0.666667
vt 0.791667 0.750000
vt 0.791667 0.833333
vt 0.791667 0.916667
vt 0.791667 1.000000
vt 0.791667 0.000000
vt 0.791667 0.083333
vt 0.791667 0.166667
vt 0.791667 0.250000
vt 0.791667 0.333333
vt 0.791667 0.416667
vt 0.812500 0.500000
vt 0.812500 0.583333
vt 0.812500 0.666667
vt 0.812500 0.750000
vt 0.812500 0.833333
vt 0.812500 0.916667
vt 0.812500 1.000000
vt 0.812500 0.000000
vt 0.812500 0.083333
vt 0.812500 0.166667
vt 0.812500 0.250000
vt 0.812500 0.333333
vt 0.812500 0.416667
vt 0.833333 0.500000
vt 0.833333 0.583333
vt 0.833333 0.666667
vt 0.833333 0.750000
vt 0.833333 0.833333
vt 0.833333 0.916667
vt 0.833333 1.000000
vt 0.833333 0.000000
vt 0.833333 0.083333
vt 0.833333 0.166667
vt 0.833333 0.250000
vt 0.833333 0.333333
vt 0.833333 0.416667
vt 0.854167 0.500000
vt 0.854167 0.583333
vt 0.854167 0.666667
vt 0.854167 0.750000
vt 0.854167 0.833333
vt 0.854167 0.916667
vt 0.854167 1.000000
vt 0.854167 0.000000
vt 0.854167 0.083333
vt 0.854167 0.166667
vt 0.854167 0.250000
vt 0.854167 0.333333
vt 0.854167 0.416667
vt 0.875000 0.500000
vt 0.875000 0.583333
vt 0.875000 0.666667
vt 0.875000 0.750000
vt 0.875000 0.833333
vt 0.875000 0.916667
vt 0.875000 1.000000
vt 0.875000 0.000000
vt 0.875000 0.083333
vt 0.875000 0.166667
vt 0.875000 0.250000
vt 0.875000 0.333333
vt 0.875000 0.416667
vt 0.895833 0.500000
vt 0.895833 0.583333
vt 0.895833 0.666667
vt 0.895833 0.750000
vt 0.895833 0.833333
vt 0.895833 0.916667
vt 0.895833 1.000000
vt 0.895833 0.000000
vt 0.895833 0.083333
vt 0.895833 0.166667
vt 0.895833 0.250000
vt 0.895833 0.333333
vt 0.895833 0.416667
vt 0.916667 0.500000
vt 0.916667 0.583333
vt 0.916667 0.666667
vt 0.916667 0.750000
vt 0.916667 0.833333
vt 0.916667 0.916667
vt 0.916667 1.000000
vt 0.916667 0.000000
vt 0.916667 0.083333
vt 0.916667 0.166667
vt 0.916667 0.250000
vt 0.916667 0.333333
vt 0.916667 0.416667
vt 0.937500 0.500000
vt 0.937500 0.583333
vt 0.937500 0.666667
vt 0.937500 0.750000
vt 0.937500 0.833333
vt 0.937500 0.916667
vt 0.937500 1.000000
vt 0.937500 0.000000
vt 0.937500 0.083333
vt 0.937500 0.166667
vt 0.937500 0.250000
vt 0.937500 0.333333
vt 0.937500 0.416667
vt 0.958333 0.500000
vt 0.958333 0.583333
vt 0.958333 0.666667
vt 0.958333 0.750000
vt 0.958333 0.833333
vt 0.958333 0.916667
vt 0.958333 1.000000
vt 0.958333 0.000000
vt 0.958333 0.083333
vt 0.958333 0.166667
vt 0.958333 0.250000
vt 0.958333 0.333333
vt 0.958333 0.416667
vt 0.979167 0.500000
vt 0.979167 0.583333
vt 0.979167 0.666667
vt 0.979167 0.750000
vt 0.979167 0.833333
vt 0.979167 0.916667
vt 0.979167 1.000000
vt 0.979167 0.000000
vt 0.979167 0.083333
vt 0.979167 0.166667
vt 0.979167 0.250000
vt 0.979167 0.333333
vt 0.979167 0.416667
vt 1.000000 0.500000
vt 1.000000 0.583333
vt 1.000000 0.666667
vt 1.000000 0.750000
vt 1.000000 0.833333
vt 1.000000 0.916667
vt 1.000000 1.000000
vt 1.000000 0.000000
vt 1.000000 0.083333
vt 1.000000 0.166667
vt 1.000000 0.250000
vt 1.000000 0.333333
vt 1.000000 0.416667
vt 0.000000 0.500000
vt 0.020833 0.500000
vt 0.020833 0.583333
vt 0.000000 0.583333
vt 0.020833 0.666667
vt 0.000000 0.666667
vt 0.020833 0.750000
vt 0.000000 0.750000
vt 0.020833 0.833333
vt 0.000000 0.833333
vt 0.020833 0.916667
vt 0.000000 0.916667
vt 0.020833 1.000000
vt 0.000000 1.000000
vt 0.000000 0.000000
vt 0.020833 0.000000
vt 0.020833 0.083333
vt 0.000000 0.083333
vt 0.020833 0.166667
vt 0.000000 0.166667
vt 0.020833 0.250000
vt 0.000000 0.250000
vt 0.020833 0.333333
vt 0.000000 0.333333
vt 0.020833 0.416667
vt 0.000000 0.416667
vt 0.041667 0.500000
vt 0.041667 0.583333
vt 0.041667 0.666667
vt 0.041667 0.750000
vt 0.041667 0.833333
vt 0.041667 0.916667
vt 0.041667 1.000000
vt 0.041667 0.000000
vt 0.041667 0.083333
vt 0.041667 0.166667
vt 0.041667 0.250000
vt 0.041667 0.333333
vt 0.041667 0.416667
vt 0.062500 0.500000
vt 0.062500 0.583333
vt 0.062500 0.666667
vt 0.062500 0.750000
vt 0.062500 0.833333
vt 0.062500 0.916667
vt 0.062500 1.000000
vt 0.062500 0.000000
vt 0.062500 0.083333
vt 0.062500 0.166667
vt 0.062500 0.250000
vt 0.062500 0.333333
vt 0.062500 0.416667
vt 0.083333 0.500000
vt 0.083333 0.583333
vt 0.083333 0.666667
vt 0.083333 0.750000
vt 0.083333 0.833333
vt 0.083333 0.916667
vt 0.083333 1.000000
vt 0.083333 0.000000
vt 0.083333 0.083333
vt 0.083333 0.166667
vt 0.083333 0.250000
vt 0.083333 0.333333
vt 0.083333 0.416667
vt 0.104167 0.500000
vt 0.104167 0.583333
vt 0.104167 0.666667
vt 0.104167 0.750000
vt 0.104167 0.833333
vt 0.104167 0.916667
vt 0.104167 1.000000
vt 0.104167 0.000000
vt 0.104167 0.083333
vt 0.104167 0.166667
vt 0.104167 0.250000
vt 0.104167 0.333333
vt 0.104167 0.416667
vt 0.125000 0.500000
vt 0.125000 0.583333
vt 0.125000 0.666667
vt 0.125000 0.750000
vt 0.125000 0.833333
vt 0.125000 0.916667
vt 0.125000 1.000000
vt 0.125000 0.000000
vt 0.125000 0.083333
vt 0.125000 0.166667
vt 0.125000 0.250000
vt 0.125000 0.333333
vt 0.125000 0.416667
vt 0.145833 0.500000
vt 0.145833 0.583333
vt 0.145833 0.666667
vt 0.145833 0.750000
vt 0.145833 0.833333
vt 0.145833 0.916667
vt 0.145833 1.000000
vt 0.145833 0.000000
vt 0.145833 0.083333
vt 0.145833 0.166667
vt 0.145833 0.250000
vt 0.145833 0.333333
vt 0.145833 0.416667
vt 0.166667 0.500000
vt 0.166667 0.583333
vt 0.166667 0.666667
vt 0.166667 0.750000
vt 0.166667 0.833333
vt 0.166667 0.916667
vt 0.166667 1.000000
vt 0.166667 0.000000
vt 0.166667 0.083333
vt 0.166667 0.166667
vt 0.166667 0.250000
vt 0.166667 0.333333
vt 0.166667 0.416667
vt 0.187500 0.500000
vt 0.187500 0.583333
vt 0.187500 0.666667
vt 0.187500 0.750000
vt 0.187500 0.833333
vt 0.187500 0.916667
vt 0.187500 1.000000
vt 0.187500 0.000000
vt 0.187500 0.083333
vt 0.187500 0.166667
vt 0.187500 0.250000
vt 0.187500 0.333333
vt 0.187500 0.416667
vt 0.208333 0.500000
vt 0.208333 0.583333
vt 0.208333 0.666667
vt 0.208333 0.750000
vt 0.208333 0.833333
vt 0.208333 0.916667
vt 0.208333 1.000000
vt 0.208333 0.000000
vt 0.208333 0.083333
vt 0.208333 0.166667
vt 0.208333 0.250000
vt 0.208333 0.333333
vt 0.208333 0.416667
vt 0.229167 0.500000
vt 0.229167 0.583333
vt 0.229167 0.666667
vt 0.229167 0.750000
vt 0.229167 0.833333
vt 0.229167 0.916667
vt 0.229167 1.000000
vt 0.229167 0.000000
vt 0.229167 0.083333
vt 0.229167 0.166667
vt 0.229167 0.250000
vt 0.229167 0.333333
vt 0.229167 0.416667
vt 0.250000 0.500000
vt 0.250000 0.583333
vt 0.250000 0.666667
vt 0.250000 0.750000
vt 0.250000 0.833333
vt 0.250000 0.916667
vt 0.250000 1.000000
vt 0.250000 0.000000
vt 0.250000 0.083333
vt 0.250000 0.166667
vt 0.250000 0.250000
vt 0.250000 0.333333
vt 0.250000 0.416667
vt 0.270833 0.500000
vt 0.270833 0.583333
vt 0.270833 0.666667
vt 0.270833 0.750000
vt 0.270833 0.833333
vt 0.270833 0.916667
vt 0.270833 1.000000
vt 0.270833 0.000000
vt 0.270833 0.083333
vt 0.270833 0.166667
vt 0.270833 0.250000
vt 0.270833 0.333333
vt 0.270833 0.416667
vt 0.291667 0.500000
vt 0.291667 0.583333
vt 0.291667 0.666667
vt 0.291667 0.750000
vt 0.291667 0.833333
vt 0.291667 0.916667
vt 0.291667 1.000000
vt 0.291667 0.000000
vt 0.291667 0.083333
vt 0.291667 0.166667
vt 0.291667 0.250000
vt 0.291667 0.333333
vt 0.291667 0.416667
vt 0.312500 0.500000
vt 0.312500 0.583333
vt 0.312500 0.666667
vt 0.312500 0.750000
vt 0.312500 0.833333
vt 0.312500 0.916667
vt 0.312500 1.000000
vt 0.312500 0.000000
vt 0.312500 0.083333
vt 0.312500 0.166667
vt 0.312500 0.250000
vt 0.312500 0.333333
vt 0.312500 0.416667
vt 0.333333 0.500000
vt 0.333333 0.583333
vt 0.333333 0.666667
vt 0.333333 0.750000
vt 0.333333 0.833333
vt 0.333333 0.916667
vt 0.333333 1.000000
vt 0.333333 0.000000
vt 0.333333 0.083333
vt 0.333333 0.166667
vt 0.333333 0.250000
vt 0.333333 0.333333
vt 0.333333 0.416667
vt 0.354167 0.500000
vt 0.354167 0.583333
vt 0.354167 0.666667
vt 0.354167 0.750000
vt 0.354167 0.833333
vt 0.354167 0.916667
vt 0.354167 1.000000
vt 0.354167 0.000000
vt 0.354167 0.083333
vt 0.354167 0.166667
vt 0.354167 0.250000
vt 0.354167 0.333333
vt 0.354167 0.416667
vt 0.375000 0.500000
vt 0.375000 0.583333
vt 0.375000 0.666667
vt 0.375000 0.750000
vt 0.375000 0.833333
vt 0.375000 0.916667
vt 0.375000 1.000000
vt 0.375000 0.000000
vt 0.375000 0.083333
vt 0.375000 0.166667
vt 0.375000 0.250000
vt 0.375000 0.333333
vt 0.375000 0.416667
vt 0.395833 0.500000
vt 0.395833 0.583333
vt 0.395833 0.666667
vt 0.395833 0.750000
vt 0.395833 0.833333
vt 0.395833 0.916667
vt 0.395833 1.000000
vt 0.395833 0.000000
vt 0.395833 0.083333
vt 0.395833 0.166667
vt 0.395833 0.250000
vt 0.395833 0.333333
vt 0.395833 0.416667
vt 0.416667 0.500000
vt 0.416667 0.583333
vt 0.416667 0.666667
vt 0.416667 0.750000
vt 0.416667 0.833333
vt 0.416667 0.916667
vt 0.416667 1.000000
vt 0.416667 0.000000
vt 0.416667 0.083333
vt 0.416667 0.166667
vt 0.416667 0.250000
vt 0.416667 0.333333
vt 0.416667 0.416667
vt 0.437500 0.500000
vt 0.437500 0.583333
vt 0.437500 0.666667
vt 0.437500 0.750000
vt 0.437500 0.833333
vt 0.437500 0.916667
vt 0.437500 1.000000
vt 0.437500 0.000000
vt 0.437500 0.083333
vt 0.437500 0.166667
vt 0.437500 0.250000
vt 0.437500 0.333333
vt 0.437500 0.416667
vt 0.458333 0.500000
vt 0.458333 0.583333
vt 0.458333 0.666667
vt 0.458333 0.750000
vt 0.458333 0.833333
vt 0.458333 0.916667
vt 0.458333 1.000000
vt 0.458333 0.000000
vt 0.458333 0.083333
vt 0.458333 0.166667
vt 0.458333 0.250000
vt 0.458333 0.333333
vt 0.458333 0.416667
vt 0.479167 0.500000
vt 0.479167 0.583333
vt 0.479167 0.666667
vt 0.479167 0.750000
vt 0.479167 0.833333
vt 0.479167 0.916667
vt 0.479167 1.000000
vt 0.479167 0.000000
vt 0.479167 0.083333
vt 0.479167 0.166667
vt 0.479167 0.250000
vt 0.479167 0.333333
vt 0.479167 0.416667
vn 0.2583 -0.9640 -0.0632
vn 0.7063 -0.7063 -0.0463
vn 0.9658 -0.2588 -0.0170
vn 0.9658 0.2588 0.0170
vn 0.7063 0.7063 0.0463
vn 0.2583 0.9640 0.0632
vn -0.2583 0.9640 0.0632
vn -0.7063 0.7063 0.0463
vn -0.9658 0.2588 0.0170
vn -0.9658 -0.2588 -0.0170
vn -0.7063 -0.7063 -0.0463
vn -0.2583 -0.9640 -0.0632
vn 0.2583 -0.9475 -0.1885
vn 0.7063 -0.6943 -0.1381
vn 0.9658 -0.2544 -0.0506
vn 0.9658 0.2544 0.0506
vn 0.7063 0.6943 0.1381
vn 0.2583 0.9475 0.1885
vn -0.2583 0.9475 0.1885
vn -0.7063 0.6943 0.1381
vn -0.9658 0.2544 0.0506
vn -0.9658 -0.2544 -0.0506
vn -0.7063 -0.6943 -0.1381
vn -0.2583 -0.9475 -0.1885
vn 0.2583 -0.9148 -0.3105
vn 0.7063 -0.6703 -0.2275
vn 0.9658 -0.2456 -0.0834
vn 0.9658 0.2456 0.0834
vn 0.7063 0.6703 0.2275
vn 0.2583 0.9148 0.3105
vn -0.2583 0.9148 0.3105
vn -0.7063 0.6703 0.2275
vn -0.9658 0.2456 0.0834
vn -0.9658 -0.2456 -0.0834
vn -0.7063 -0.6703 -0.2275
vn -0.2583 -0.9148 -0.3105
vn 0.2583 -0.8664 -0.4273
vn 0.7063 -0.6349 -0.3131
vn 0.9658 -0.2326 -0.1147
vn 0.9658 0.2326 0.1147
vn 0.7063 0.6349 0.3131
vn 0.2583 0.8664 0.4273
vn -0.2583 0.8664 0.4273
vn -0.7063 0.6349 0.3131
vn -0.9658 0.2326 0.1147
vn -0.9658 -0.2326 -0.1147
vn -0.7063 -0.6349 -0.3131
vn -0.2583 -0.8664 -0.4273
vn 0.2583 -0.8033 -0.5367
vn 0.7063 -0.5886 -0.3933
vn 0.9658 -0.2156 -0.1441
vn 0.9658 0.2156 0.1441
vn 0.7063 0.5886 0.3933
vn 0.2583 0.8033 0.5367
vn -0.2583 0.8033 0.5367
vn -0.7063 0.5886 0.3933
vn -0.9658 0.2156 0.1441
vn -0.9658 -0.2156 -0.1441
vn -0.7063 -0.5886 -0.3933
vn -0.2583 -0.8033 -0.5367
vn 0.2583 -0.7263 -0.6370
vn 0.7063 -0.5322 -0.4667
vn 0.9658 -0.1950 -0.1710
vn 0.9658 0.1950 0.1710
vn 0.7063 0.5322 0.4667
vn 0.2583 0.7263 0.6370
vn -0.2583 0.7263 0.6370
vn -0.7063 0.5322 0.4667
vn -0.9658 0.1950 0.1710
vn -0.9658 -0.1950 -0.1710
vn -0.7063 -0.5322 -0.4667
vn -0.2583 -0.7263 -0.6370
vn 0.2583 -0.6370 -0.7263
vn 0.7063 -0.4667 -0.5322
vn 0.9658 -0.1710 -0.1950
vn 0.9658 0.1710 0.1950
vn 0.7063 0.4667 0.5322
vn 0.2583 0.6370 0.7263
vn -0.2583 0.6370 0.7263
vn -0.7063 0.4667 0.5322
vn -0.9658 0.1710 0.1950
vn -0.9658 -0.1710 -0.1950
vn -0.7063 -0.4667 -0.5322
vn -0.2583 -0.6370 -0.7263
vn 0.2583 -0.5367 -0.8033
vn 0.7063 -0.3933 -0.5886
vn 0.9658 -0.1441 -0.2156
vn 0.9658 0.1441 0.2156
vn 0.7063 0.3933 0.5886
vn 0.2583 0.5367 0.8033
vn -0.2583 0.5367 0.8033
vn -0.7063 0.3933 0.5886
vn -0.9658 0.1441 0.2156
vn -0.9658 -0.1441 -0.2156
vn -0.7063 -0.3933 -0.5886
vn -0.2583 -0.5367 -0.8033
vn 0.2583 -0.4273 -0.8664
vn 0.7063 -0.3131 -0.6349
vn 0.9658 -0.1147 -0.2326
vn 0.9658 0.1147 0.2326
vn 0.7063 0.3131 0.6349
vn 0.2583 0.4273 0.8664
vn -0.2583 0.4273 0.8664
vn -0.7063 0.3131 0.6349
vn -0.9658 0.1147 0.2326
vn -0.9658 -0.1147 -0.2326
vn -0.7063 -0.3131 -0.6349
vn -0.2583 -0.4273 -0.8664
vn 0.2583 -0.3105 -0.9148
vn 0.7063 -0.2275 -0.6703
vn 0.9658 -0.0834 -0.2456
vn 0.9658 0.0834 0.2456
vn 0.7063 0.2275 0.6703
vn 0.2583 0.3105 0.9148
vn -0.2583 0.3105 0.9148
vn -0.7063 0.2275 0.6703
vn -0.9658 0.0834 0.2456
vn -0.9658 -0.0834 -0.2456
vn -0.7063 -0.2275 -0.6703
vn -0.2583 -0.3105 -0.9148
vn 0.2583 -0.1885 -0.9475
vn 0.7063 -0.1381 -0.6943
vn 0.9658 -0.0506 -0.2544
vn 0.9658 0.0506 0.2544
vn 0.7063 0.1381 0.6943
vn 0.2583 0.1885 0.9475
vn -0.2583 0.1885 0.9475
vn -0.7063 0.1381 0.6943
vn -0.9658 0.0506 0.2544
vn -0.9658 -0.0506 -0.2544
vn -0.7063 -0.1381 -0.6943
vn -0.2583 -0.1885 -0.9475
vn 0.2583 -0.0632 -0.9640
vn 0.7063 -0.0463 -0.7063
vn 0.9658 -0.0170 -0.2588
vn 0.9658 0.0170 0.2588
vn 0.7063 0.0463 0.7063
vn 0.2583 0.0632 0.9640
vn -0.2583 0.0632 0.9640
vn -0.7063 0.0463 0.7063
vn -0.9658 0.0170 0.2588
vn -0.9658 -0.0170 -0.2588
vn -0.7063 -0.0463 -0.7063
vn -0.2583 -0.0632 -0.9640
vn 0.2583 0.0632 -0.9640
vn 0.7063 0.0463 -0.7063
vn 0.9658 0.0170 -0.2588
vn 0.9658 -0.0170 0.2588
vn 0.7063 -0.0463 0.7063
vn 0.2583 -0.0632 0.9640
vn -0.2583 -0.0632 0.9640
vn -0.7063 -0.0463 0.7063
vn -0.9658 -0.0170 0.2588
vn -0.9658 0.0170 -0.2588
vn -0.7063 0.0463 -0.7063
vn -0.2583 0.0632 -0.9640
vn 0.2583 0.1885 -0.9475
vn 0.7063 0.1381 -0.6943
vn 0.9658 0.0506 -0.2544
vn 0.9658 -0.0506 0.2544
vn 0.7063 -0.1381 0.6943
vn 0.2583 -0.1885 0.9475
vn -0.2583 -0.1885 0.9475
vn -0.7063 -0.1381 0.6943
vn -0.9658 -0.0506 0.2544
vn -0.9658 0.0506 -0.2544
vn -0.7063 0.1381 -0.6943
vn -0.2583 0.1885 -0.9475
vn 0.2583 0.3105 -0.9148
vn 0.7063 0.2275 -0.6703
vn 0.9658 0.0834 -0.2456
vn 0.9658 -0.0834 0.2456
vn 0.7063 -0.2275 0.6703
vn 0.2583 -0.3105 0.9148
vn -0.2583 -0.3105 0.9148
vn -0.7063 -0.2275 0.6703
vn -0.9658 -0.0834 0.2456
vn -0.9658 0.0834 -0.2456
vn -0.7063 0.2275 -0.6703
vn -0.2583 0.3105 -0.9148
vn 0.2583 0.4273 -0.8664
vn 0.7063 0.3131 -0.6349
vn 0.9658 0.1147 -0.2326
vn 0.9658 -0.1147 0.2326
vn 0.7063 -0.3131 0.6349
vn 0.2583 -0.4273 0.8664
vn -0.2583 -0.4273 0.8664
vn -0.7063 -0.3131 0.6349
vn -0.9658 -0.1147 0.2326
vn -0.9658 0.1147 -0.2326
vn -0.7063 0.3131 -0.6349
vn -0.2583 0.4273 -0.8664
vn 0.2583 0.5367 -0.8033
vn 0.7063 0.3933 -0.5886
vn 0.9658 0.1441 -0.2156
vn 0.9658 -0.1441 0.2156
vn 0.7063 -0.3933 0.5886
vn 0.2583 -0.5367 0.8033
vn -0.2583 -0.5367 0.8033
vn -0.7063 -0.3933 0.5886
vn -0.9658 -0.1441 0.2156
vn -0.9658 0.1441 -0.2156
vn -0.7063 0.3933 -0.5886
vn -0.2583 0.5367 -0.8033
vn 0.2583 0.6370 -0.7263
vn 0.7063 0.4667 -0.5322
vn 0.9658 0.1710 -0.1950
vn 0.9658 -0.1710 0.1950
vn 0.7063 -0.4667 0.5322
vn 0.2583 -0.6370 0.7263
vn -0.2583 -0.6370 0.7263
vn -0.7063 -0.4667 0.5322
vn -0.9658 -0.1710 0.1950
vn -0.9658 0.1710 -0.1950
vn -0.7063 0.4667 -0.5322
vn -0.2583 0.6370 -0.7263
vn 0.2583 0.7263 -0.6370
vn 0.7063 0.5322 -0.4667
vn 0.9658 0.1950 -0.1710
vn 0.9658 -0.1950 0.1710
vn 0.7063 -0.5322 0.4667
vn 0.2583 -0.7263 0.6370
vn -0.2583 -0.7263 0.6370
vn -0.7063 -0.5322 0.4667
vn -0.9658 -0.1950 0.1710
vn -0.9658 0.1950 -0.1710
vn -0.7063 0.5322 -0.4667
vn -0.2583 0.7263 -0.6370
vn 0.2583 0.8033 -0.5367
vn 0.7063 0.5886 -0.3933
vn 0.9658 0.2156 -0.1441
vn 0.9658 -0.2156 0.1441
vn 0.7063 -0.5886 0.3933
vn 0.2583 -0.8033 0.5367
vn -0.2583 -0.8033 0.5367
vn -0.7063 -0.5886 0.3933
vn -0.9658 -0.2156 0.1441
vn -0.9658 0.2156 -0.1441
vn -0.7063 0.5886 -0.3933
vn -0.2583 0.8033 -0.5367
vn 0.2583 0.8664 -0.4273
vn 0.7063 0.6349 -0.3131
vn 0.9658 0.2326 -0.1147
vn 0.9658 -0.2326 0.1147
vn 0.7063 -0.6349 0.3131
vn 0.2583 -0.8664 0.4273
vn -0.2583 -0.8664 0.4273
vn -0.7063 -0.6349 0.3131
vn -0.9658 -0.2326 0.1147
vn -0.9658 0.2326 -0.1147
vn -0.7063 0.6349 -0.3131
vn -0.2583 0.8664 -0.4273
vn 0.2583 0.9148 -0.3105
vn 0.7063 0.6703 -0.2275
vn 0.9658 0.2456 -0.0834
vn 0.9658 -0.2456 0.0834
vn 0.7063 -0.6703 0.2275
vn 0.2583 -0.9148 0.3105
vn -0.2583 -0.9148 0.3105
vn -0.7063 -0.6703 0.2275
vn -0.9658 -0.2456 0.0834
vn -0.9658 0.2456 -0.0834
vn -0.7063 0.6703 -0.2275
vn -0.2583 0.9148 -0.3105
vn 0.2583 0.9475 -0.1885
vn 0.7063 0.6943 -0.1381
vn 0.9658 0.2544 -0.0506
vn 0.9658 -0.2544 0.0506
vn 0.7063 -0.6943 0.1381
vn 0.2583 -0.9475 0.1885
vn -0.2583 -0.9475 0.1885
vn -0.7063 -0.6943 0.1381
vn -0.9658 -0.2544 0.0506
vn -0.9658 0.2544 -0.0506
vn -0.7063 0.6943 -0.1381
vn -0.2583 0.9475 -0.1885
vn 0.2583 0.9640 -0.0632
vn 0.7063 0.7063 -0.0463
vn 0.9658 0.2588 -0.0170
vn 0.9658 -0.2588 0.0170
vn 0.7063 -0.7063 0.0463
vn 0.2583 -0.9640 0.0632
vn -0.2583 -0.9640 0.0632
vn -0.7063 -0.7063 0.0463
vn -0.9658 -0.2588 0.0170
vn -0.9658 0.2588 -0.0170
vn -0.7063 0.7063 -0.0463
vn -0.2583 0.9640 -0.0632
usemtl None
s off
f 1/1/1 13/2/1 14/3/1 2/4/1
f 2/4/2 14/3/2 15/5/2 3/6/2
f 3/6/3 15/5/3 16/7/3 4/8/3
f 4/8/4 16/7/4 17/9/4 5/10/4
f 5/10/5 17/9/5 18/11/5 6/12/5
f 6/12/6 18/11/6 19/13/6 7/14/6
f 7/15/7 19/16/7 20/17/7 8/18/7
f 8/18/8 20/17/8 21/19/8 9/20/8
f 9/20/9 21/19/9 22/21/9 10/22/9
f 10/22/10 22/21/10 23/23/10 11/24/10
f 11/24/11 23/23/11 24/25/11 12/26/11
f 12/26/12 24/25/12 13/2/12 1/1/12
f 13/2/13 25/27/13 26/28/13 14/3/13
f 14/3/14 26/28/14 27/29/14 15/5/14
f 15/5/15 27/29/15 28/30/15 16/7/15
f 16/7/16 28/30/16 29/31/16 17/9/16
f 17/9/17 29/31/17 30/32/17 18/11/17
f 18/11/18 30/32/18 31/33/18 19/13/18
f 19/16/19 31/34/19 32/35/19 20/17/19
f 20/17/20 32/35/20 33/36/20 21/19/20
f 21/19/21 33/36/21 34/37/21 22/21/21
f 22/21/22 34/37/22 35/38/22 23/23/22
f 23/23/23 35/38/23 36/39/23 24/25/23
f 24/25/24 36/39/24 25/27/24 13/2/24
f 25/27/25 37/40/25 38/41/25 26/28/25
f 26/28/26 38/41/26 39/42/26 27/29/26
f 27/29/27 39/42/27 40/43/27 28/30/27
f 28/30/28 40/43/28 41/44/28 29/31/28
f 29/31/29 41/44/29 42/45/29 30/32/29
f 30/32/30 42/45/30 43/46/30 31/33/30
f 31/34/31 43/47/31 44/48/31 32/35/31
f 32/35/32 44/48/32 45/49/32 33/36/32
f 33/36/33 45/49/33 46/50/33 34/37/33
f 34/37/34 46/50/34 47/51/34 35/38/34
f 35/38/35 47/51/35 48/52/35 36/39/35
f 36/39/36 48/52/36 37/40/36 25/27/36
f 37/40/37 49/53/37 50/54/37 38/41/37
f 38/41/38 50/54/38 51/55/38 39/42/38
f 39/42/39 51/55/39 52/56/39 40/43/39
f 40/43/40 52/56/40 53/57/40 41/44/40
f 41/44/41 53/57/41 54/58/41 42/45/41
f 42/45/42 54/58/42 55/59/42 43/46/42
f 43/47/43 55/60/43 56/61/43 44/48/43
f 44/48/44 56/61/44 57/62/44 45/49/44
f 45/49/45 57/62/45 58/63/45 46/50/45
f 46/50/46 58/63/46 59/64/46 47/51/46
f 47/51/47 59/64/47 60/65/47 48/52/47
f 48/52/48 60/65/48 49/53/48 37/40/48
f 49/53/49 61/66/49 62/67/49 50/54/49
f 50/54/50 62/67/50 63/68/50 51/55/50
f 51/55/51 63/68/51 64/69/51 52/56/51
f 52/56/52 64/69/52 65/70/52 53/57/52
f 53/57/53 65/70/53 66/71/53 54/58/53
f 54/58/54 66/71/54 67/72/54 55/59/54
f 55/60/55 67/73/55 68/74/55 56/61/55
f 56/61/56 68/74/56 69/75/56 57/62/56
f 57/62/57 69/75/57 70/76/57 58/63/57
f 58/63/58 70/76/58 71/77/58 59/64/58
f 59/64/59 71/77/59 72/78/59 60/65/59
f 60/65/60 72/78/60 61/66/60 49/53/60
f 61/66/61 73/79/61 74/80/61 62/67/61
f 62/67/62 74/80/62 75/81/62 63/68/62
f 63/68/63 75/81/63 76/82/63 64/69/63
f 64/69/64 76/82/64 77/83/64 65/70/64
f 65/70/65 77/83/65 78/84/65 66/71/65
f 66/71/66 78/84/66 79/85/66 67/72/66
f 67/73/67 79/86/67 80/87/67 68/74/67
f 68/74/68 80/87/68 81/88/68 69/75/68
f 69/75/69 81/88/69 82/89/69 70/76/69
f 70/76/70 82/89/70 83/90/70 71/77/70
f 71/77/71 83/90/71 84/91/71 72/78/71
f 72/78/72 84/91/72 73/79/72 61/66/72
f 73/79/73 85/92/73 86/93/73 74/80/73
f 74/80/74 86/93/74 87/94/74 75/81/74
f 75/81/75 87/94/75 88/95/75 76/82/75
f 76/82/76 88/95/76 89/96/76 77/83/76
f 77/83/77 89/96/77 90/97/77 78/84/77
f 78/84/78 90/97/78 91/98/78 79/85/78
f 79/86/79 91/99/79 92/100/79 80/87/79
f 80/87/80 92/100/80 93/101/80 81/88/80
f 81/88/81 93/101/81 94/102/81 82/89/81
f 82/89/82 94/102/82 95/103/82 83/90/82
f 83/90/83 95/103/83 96/104/83 84/91/83
f 84/91/84 96/104/84 85/92/84 73/79/84
f 85/92/85 97/105/85 98/106/85 86/93/85
f 86/93/86 98/106/86 99/107/86 87/94/86
f 87/94/87 99/107/87 100/108/87 88/95/87
f 88/95/88 100/108/88 101/109/88 89/96/88
f 89/96/89 101/109/89 102/110/89 90/97/89
f 90/97/90 102/110/90 103/111/90 91/98/90
f 91/99/91 103/112/91 104/113/91 92/100/91
f 92/100/92 104/113/92 105/114/92 93/101/92
f 93/101/93 105/114/93 106/115/93 94/102/93
f 94/102/94 106/115/94 107/116/94 95/103/94
f 95/103/95 107/116/95 108/117/95 96/104/95
f 96/104/96 108/117/96 97/105/96 85/92/96
f 97/105/97 109/118/97 110/119/97 98/106/97
f 98/106/98 110/119/98 111/120/98 99/107/98
f 99/107/99 111/120/99 112/121/99 100/108/99
f 100/108/100 112/121/100 113/122/100 101/109/100
f 101/109/101 113/122/101 114/123/101 102/110/101
f 102/110/102 114/123/102 115/124/102 103/111/102
f 103/112/103 115/125/103 116/126/103 104/113/103
f 104/113/104 116/126/104 117/127/104 105/114/104
f 105/114/105 117/127/105 118/128/105 106/115/105
f 106/115/106 118/128/106 119/129/106 107/116/106
f 107/116/107 119/129/107 120/130/107 108/117/107
f 108/117/108 120/130/108 109/118/108 97/105/108
f 109/118/109 121/131/109 122/132/109 110/119/109
f 110/119/110 122/132/110 123/133/110 111/120/110
f 111/120/111 123/133/111 124/134/111 112/121/111
f 112/121/112 124/134/112 125/135/112 113/122/112
f 113/122/113 125/135/113 126/136/113 114/123/113
f 114/123/114 126/136/114 127/137/114 115/124/114
f 115/125/115 127/138/115 128/139/115 116/126/115
f 116/126/116 128/139/116 129/140/116 117/127/116
f 117/127/117 129/140/117 130/141/117 118/128/117
f 118/128/118 130/141/118 131/142/118 119/129/118
f 119/129/119 131/142/119 132/143/119 120/130/119
f 120/130/120 132/143/120 121/131/120 109/118/120
f 121/131/121 133/144/121 134/145/121 122/132/121
f 122/132/122 134/145/122 135/146/122 123/133/122
f 123/133/123 135/146/123 136/147/123 124/134/123
f 124/134/124 136/147/124 137/148/124 125/135/124
f 125/135/125 137/148/125 138/149/125 126/136/125
f 126/136/126 138/149/126 139/150/126 127/137/126
f 127/138/127 139/151/127 140/152/127 128/139/127
f 128/139/128 140/152/128 141/153/128 129/140/128
f 129/140/129 141/153/129 142/154/129 130/141/129
f 130/141/130 142/154/130 143/155/130 131/142/130
f 131/142/131 143/155/131 144/156/131 132/143/131
f 132/143/132 144/156/132 133/144/132 121/131/132
f 133/144/133 145/157/133 146/158/133 134/145/133
f 134/145/134 146/158/134 147/159/134 135/146/134
f 135/146/135 147/159/135 148/160/135 136/147/135
f 136/147/136 148/160/136 149/161/136 137/148/136
f 137/148/137 149/161/137 150/162/137 138/149/137
f 138/149/138 150/162/138 151/163/138 139/150/138
f 139/151/139 151/164/139 152/165/139 140/152/139
f 140/152/140 152/165/140 153/166/140 141/153/140
f 141/153/141 153/166/141 154/167/141 142/154/141
f 142/154/142 154/167/142 155/168/142 143/155/142
f 143/155/143 155/168/143 156/169/143 144/156/143
f 144/156/144 156/169/144 145/157/144 133/144/144
f 145/157/145 157/170/145 158/171/145 146/158/145
f 146/158/146 158/171/146 159/172/146 147/159/146
f 147/159/147 159/172/147 160/173/147 148/160/147
f 148/160/148 160/173/148 161/174/148 149/161/148
f 149/161/149 161/174/149 162/175/149 150/162/149
f 150/162/150 162/175/150 163/176/150 151/163/150
f 151/164/151 163/177/151 164/178/151 152/165/151
f 152/165/152 164/178/152 165/179/152 153/166/152
f 153/166/153 165/179/153 166/180/153 154/167/153
f 154/167/154 166/180/154 167/181/154 155/168/154
f 155/168/155 167/181/155 168/182/155 156/169/155
f 156/169/156 168/182/156 157/170/156 145/157/156
f 157/170/157 169/183/157 170/184/157 158/171/157
f 158/171/158 170/184/158 171/185/158 159/172/158
f 159/172/159 171/185/159 172/186/159 160/173/159
f 160/173/160 172/186/160 173/187/160 161/174/160
f 161/174/161 173/187/161 174/188/161 162/175/161
f 162/175/162 174/188/162 175/189/162 163/176/162
f 163/177/163 175/190/163 176/191/163 164/178/163
f 164/178/164 176/191/164 177/192/164 165/179/164
f 165/179/165 177/192/165 178/193/165 166/180/165
f 166/180/166 178/193/166 179/194/166 167/181/166
f 167/181/167 179/194/167 180/195/167 168/182/167
f 168/182/168 180/195/168 169/183/168 157/170/168
f 169/183/169 181/196/169 182/197/169 170/184/169
f 170/184/170 182/197/170 183/198/170 171/185/170
f 171/185/171 183/198/171 184/199/171 172/186/171
f 172/186/172 184/199/172 185/200/172 173/187/172
f 173/187/173 185/200/173 186/201/173 174/188/173
f 174/188/174 186/201/174 187/202/174 175/189/174
f 175/190/175 187/203/175 188/204/175 176/191/175
f 176/191/176 188/204/176 189/205/176 177/192/176
f 177/192/177 189/205/177 190/206/177 178/193/177
f 178/193/178 190/206/178 191/207/178 179/194/178
f 179/194/179 191/207/179 192/208/179 180/195/179
f 180/195/180 192/208/180 181/196/180 169/183/180
f 181/196/181 193/209/181 194/210/181 182/197/181
f 182/197/182 194/210/182 195/211/182 183/198/182
f 183/198/183 195/211/183 196/212/183 184/199/183
f 184/199/184 196/212/184 197/213/184 185/200/184
f 185/200/185 197/213/185 198/214/185 186/201/185
f 186/201/186 198/214/186 199/215/186 187/202/186
f 187/203/187 199/216/187 200/217/187 188/204/187
f 188/204/188 200/217/188 201/218/188 189/205/188
f 189/205/189 201/218/189 202/219/189 190/206/189
f 190/206/190 202/219/190 203/220/190 191/207/190
f 191/207/191 203/220/191 204/221/191 192/208/191
f 192/208/192 204/221/192 193/209/192 181/196/192
f 193/209/193 205/222/193 206/223/193 194/210/193
f 194/210/194 206/223/194 207/224/194 195/211/194
f 195/211/195 207/224/195 208/225/195 196/212/195
f 196/212/196 208/225/196 209/226/196 197/213/196
f 197/213/197 209/226/197 210/227/197 198/214/197
f 198/214/198 210/227/198 211/228/198 199/215/198
f 199/216/199 211/229/199 212/230/199 200/217/199
f 200/217/200 212/230/200 213/231/200 201/218/200
f 201/218/201 213/231/201 214/232/201 202/219/201
f 202/219/202 214/232/202 215/233/202 203/220/202
f 203/220/203 215/233/203 216/234/203 204/221/203
f 204/221/204 216/234/204 205/222/204 193/209/204
f 205/222/205 217/235/205 218/236/205 206/223/205
f 206/223/206 218/236/206 219/237/206 207/224/206
f 207/224/207 219/237/207 220/238/207 208/225/207
f 208/225/208 220/238/208 221/239/208 209/226/208
f 209/226/209 221/239/209 222/240/209 210/227/209
f 210/227/210 222/240/210 223/241/210 211/228/210
f 211/229/211 223/242/211 224/243/211 212/230/211
f 212/230/212 224/243/212 225/244/212 213/231/212
f 213/231/213 225/244/213 226/245/213 214/232/213
f 214/232/214 226/245/214 227/246/214 215/233/214
f 215/233/215 227/246/215 228/247/215 216/234/215
f 216/234/216 228/247/216 217/235/216 205/222/216
f 217/235/217 229/248/217 230/249/217 218/236/217
f 218/236/218 230/249/218 231/250/218 219/237/218
f 219/237/219 231/250/219 232/251/219 220/238/219
f 220/238/220 232/251/220 233/252/220 221/239/220
f 221/239/221 233/252/221 234/253/221 222/240/221
f 222/240/222 234/253/222 235/254/222 223/241/222
f 223/242/223 235/255/223 236/256/223 224/243/223
f 224/243/224 236/256/224 237/257/224 225/244/224
f 225/244/225 237/257/225 238/258/225 226/245/225
f 226/245/226 238/258/226 239/259/226 227/246/226
f 227/246/227 239/259/227 240/260/227 228/247/227
f 228/247/228 240/260/228 229/248/228 217/235/228
f 229/248/229 241/261/229 242/262/229 230/249/229
f 230/249/230 242/262/230 243/263/230 231/250/230
f 231/250/231 243/263/231 244/264/231 232/251/231
f 232/251/232 244/264/232 245/265/232 233/252/232
f 233/252/233 245/265/233 246/266/233 234/253/233
f 234/253/234 246/266/234 247/267/234 235/254/234
f 235/255/235 247/268/235 248/269/235 236/256/235
f 236/256/236 248/269/236 249/270/236 237/257/236
f 237/257/237 249/270/237 250/271/237 238/258/237
f 238/258/238 250/271/238 251/272/238 239/259/238
f 239/259/239 251/272/239 252/273/239 240/260/239
f 240/260/240 252/273/240 241/261/240 229/248/240
f 241/261/241 253/274/241 254/275/241 242/262/241
f 242/262/242 254/275/242 255/276/242 243/263/242
f 243/263/243 255/276/243 256/277/243 244/264/243
f 244/264/244 256/277/244 257/278/244 245/265/244
f 245/265/245 257/278/245 258/279/245 246/266/245
f 246/266/246 258/279/246 259/280/246 247/267/246
f 247/268/247 259/281/247 260/282/247 248/269/247
f 248/269/248 260/282/248 261/283/248 249/270/248
f 249/270/249 261/283/249 262/284/249 250/271/249
f 250/271/250 262/284/250 263/285/250 251/272/250
f 251/272/251 263/285/251 264/286/251 252/273/251
f 252/273/252 264/286/252 253/274/252 241/261/252
f 253/274/253 265/287/253 266/288/253 254/275/253
f 254/275/254 266/288/254 267/289/254 255/276/254
f 255/276/255 267/289/255 268/290/255 256/277/255
f 256/277/256 268/290/256 269/291/256 257/278/256
f 257/278/257 269/291/257 270/292/257 258/279/257
f 258/279/258 270/292/258 271/293/258 259/280/258
f 259/281/259 271/294/259 272/295/259 260/282/259
f 260/282/260 272/295/260 273/296/260 261/283/260
f 261/283/261 273/296/261 274/297/261 262/284/261
f 262/284/262 274/297/262 275/298/262 263/285/262
f 263/285/263 275/298/263 276/299/263 264/286/263
f 264/286/264 276/299/264 265/287/264 253/274/264
f 265/287/265 277/300/265 278/301/265 266/288/265
f 266/288/266 278/301/266 279/302/266 267/289/266
f 267/289/267 279/302/267 280/303/267 268/290/267
f 268/290/268 280/303/268 281/304/268 269/291/268
f 269/291/269 281/304/269 282/305/269 270/292/269
f 270/292/270 282/305/270 283/306/270 271/293/270
f 271/294/271 283/307/271 284/308/271 272/295/271
f 272/295/272 284/308/272 285/309/272 273/296/272
f 273/296/273 285/309/273 286/310/273 274/297/273
f 274/297/274 286/310/274 287/311/274 275/298/274
f 275/298/275 287/311/275 288/312/275 276/299/275
f 276/299/276 288/312/276 277/300/276 265/287/276
f 277/300/277 289/313/277 290/314/277 278/301/277
f 278/301/278 290/314/278 291/315/278 279/302/278
f 279/302/279 291/315/279 292/316/279 280/303/279
f 280/303/280 292/316/280 293/317/280 281/304/280
f 281/304/281 293/317/281 294/318/281 282/305/281
f 282/305/282 294/318/282 295/319/282 283/306/282
f 283/307/283 295/320/283 296/321/283 284/308/283
f 284/308/284 296/321/284 297/322/284 285/309/284
f 285/309/285 297/322/285 298/323/285 286/310/285
f 286/310/286 298/323/286 299/324/286 287/311/286
f 287/311/287 299/324/287 300/325/287 288/312/287
f 288/312/288 300/325/288 289/313/288 277/300/288
f 289/326/6 301/327/6 302/328/6 290/329/6
f 290/329/5 302/328/5 303/330/5 291/331/5
f 291/331/4 303/330/4 304/332/4 292/333/4
f 292/333/3 304/332/3 305/334/3 293/335/3
f 293/335/2 305/334/2 306/336/2 294/337/2
f 294/337/1 306/336/1 307/338/1 295/339/1
f 295/340/12 307/341/12 308/342/12 296/343/12
f 296/343/11 308/342/11 309/344/11 297/345/11
f 297/345/10 309/344/10 310/346/10 298/347/10
f 298/347/9 310/346/9 311/348/9 299/349/9
f 299/349/8 311/348/8 312/350/8 300/351/8
f 300/351/7 312/350/7 301/327/7 289/326/7
f 301/327/18 313/352/18 314/353/18 302/328/18
f 302/328/17 314/353/17 315/354/17 303/330/17
f 303/330/16 315/354/16 316/355/16 304/332/16
f 304/332/15 316/355/15 317/356/15 305/334/15
f 305/334/14 317/356/14 318/357/14 306/336/14
f 306/336/13 318/357/13 319/358/13 307/338/13
f 307/341/24 319/359/24 320/360/24 308/342/24
f 308/342/23 320/360/23 321/361/23 309/344/23
f 309/344/22 321/361/22 322/362/22 310/346/22
f 310/346/21 322/362/21 323/363/21 311/348/21
f 311/348/20 323/363/20 324/364/20 312/350/20
f 312/350/19 324/364/19 313/352/19 301/327/19
f 313/352/30 325/365/30 326/366/30 314/353/30
f 314/353/29 326/366/29 327/367/29 315/354/29
f 315/354/28 327/367/28 328/368/28 316/355/28
f 316/355/27 328/368/27 329/369/27 317/356/27
f 317/356/26 329/369/26 330/370/26 318/357/26
f 318/357/25 330/370/25 331/371/25 319/358/25
f 319/359/36 331/372/36 332/373/36 320/360/36
f 320/360/35 332/373/35 333/374/35 321/361/35
f 321/361/34 333/374/34 334/375/34 322/362/34
f 322/362/33 334/375/33 335/376/33 323/363/33
f 323/363/32 335/376/32 336/377/32 324/364/32
f 324/364/31 336/377/31 325/365/31 313/352/31
f 325/365/42 337/378/42 338/379/42 326/366/42
f 326/366/41 338/379/41 339/380/41 327/367/41
f 327/367/40 339/380/40 340/381/40 328/368/40
f 328/368/39 340/381/39 341/382/39 329/369/39
f 329/369/38 341/382/38 342/383/38 330/370/38
f 330/370/37 342/383/37 343/384/37 331/371/37
f 331/372/48 343/385/48 344/386/48 332/373/48
f 332/373/47 344/386/47 345/387/47 333/374/47
f 333/374/46 345/387/46 346/388/46 334/375/46
f 334/375/45 346/388/45 347/389/45 335/376/45
f 335/376/44 347/389/44 348/390/44 336/377/44
f 336/377/43 348/390/43 337/378/43 325/365/43
f 337/378/54 349/391/54 350/392/54 338/379/54
f 338/379/53 350/392/53 351/393/53 339/380/53
f 339/380/52 351/393/52 352/394/52 340/381/52
f 340/381/51 352/394/51 353/395/51 341/382/51
f 341/382/50 353/395/50 354/396/50 342/383/50
f 342/383/49 354/396/49 355/397/49 343/384/49
f 343/385/60 355/398/60 356/399/60 344/386/60
f 344/386/59 356/399/59 357/400/59 345/387/59
f 345/387/58 357/400/58 358/401/58 346/388/58
f 346/388/57 358/401/57 359/402/57 347/389/57
f 347/389/56 359/402/56 360/403/56 348/390/56
f 348/390/55 360/403/55 349/391/55 337/378/55
f 349/391/66 361/404/66 362/405/66 350/392/66
f 350/392/65 362/405/65 363/406/65 351/393/65
f 351/393/64 363/406/64 364/407/64 352/394/64
f 352/394/63 364/407/63 365/408/63 353/395/63
f 353/395/62 365/408/62 366/409/62 354/396/62
f 354/396/61 366/409/61 367/410/61 355/397/61
f 355/398/72 367/411/72 368/412/72 356/399/72
f 356/399/71 368/412/71 369/413/71 357/400/71
f 357/400/70 369/413/70 370/414/70 358/401/70
f 358/401/69 370/414/69 371/415/69 359/402/69
f 359/402/68 371/415/68 372/416/68 360/403/68
f 360/403/67 372/416/67 361/404/67 349/391/67
f 361/404/78 373/417/78 374/418/78 362/405/78
f 362/405/77 374/418/77 375/419/77 363/406/77
f 363/406/76 375/419/76 376/420/76 364/407/76
f 364/407/75 376/420/75 377/421/75 365/408/75
f 365/408/74 377/421/74 378/422/74 366/409/74
f 366/409/73 378/422/73 379/423/73 367/410/73
f 367/411/84 379/424/84 380/425/84 368/412/84
f 368/412/83 380/425/83 381/426/83 369/413/83
f 369/413/82 381/426/82 382/427/82 370/414/82
f 370/414/81 382/427/81 383/428/81 371/415/81
f 371/415/80 383/428/80 384/429/80 372/416/80
f 372/416/79 384/429/79 373/417/79 361/404/79
f 373/417/90 385/430/90 386/431/90 374/418/90
f 374/418/89 386/431/89 387/432/89 375/419/89
f 375/419/88 387/432/88 388/433/88 376/420/88
f 376/420/87 388/433/87 389/434/87 377/421/87
f 377/421/86 389/434/86 390/435/86 378/422/86
f 378/422/85 390/435/85 391/436/85 379/423/85
f 379/424/96 391/437/96 392/438/96 380/425/96
f 380/425/95 392/438/95 393/439/95 381/426/95
f 381/426/94 393/439/94 394/440/94 382/427/94
f 382/427/93 394/440/93 395/441/93 383/428/93
f 383/428/92 395/441/92 396/442/92 384/429/92
f 384/429/91 396/442/91 385/430/91 373/417/91
f 385/430/102 397/443/102 398/444/102 386/431/102
f 386/431/101 398/444/101 399/445/101 387/432/101
f 387/432/100 399/445/100 400/446/100 388/433/100
f 388/433/99 400/446/99 401/447/99 389/434/99
f 389/434/98 401/447/98 402/448/98 390/435/98
f 390/435/97 402/448/97 403/449/97 391/436/97
f 391/437/108 403/450/108 404/451/108 392/438/108
f 392/438/107 404/451/107 405/452/107 393/439/107
f 393/439/106 405/452/106 406/453/106 394/440/106
f 394/440/105 406/453/105 407/454/105 395/441/105
f 395/441/104 407/454/104 408/455/104 396/442/104
f 396/442/103 408/455/103 397/443/103 385/430/103
f 397/443/114 409/456/114 410/457/114 398/444/114
f 398/444/113 410/457/113 411/458/113 399/445/113
f 399/445/112 411/458/112 412/459/112 400/446/112
f 400/446/111 412/459/111 413/460/111 401/447/111
f 401/447/110 413/460/110 414/461/110 402/448/110
f 402/448/109 414/461/109 415/462/109 403/449/109
f 403/450/120 415/463/120 416/464/120 404/451/120
f 404/451/119 416/464/119 417/465/119 405/452/119
f 405/452/118 417/465/118 418/466/118 406/453/118
f 406/453/117 418/466/117 419/467/117 407/454/117
f 407/454/116 419/467/116 420/468/116 408/455/116
f 408/455/115 420/468/115 409/456/115 397/443/115
f 409/456/126 421/469/126 422/470/126 410/457/126
f 410/457/125 422/470/125 423/471/125 411/458/125
f 411/458/124 423/471/124 424/472/124 412/459/124
f 412/459/123 424/472/123 425/473/123 413/460/123
f 413/460/122 425/473/122 426/474/122 414/461/122
f 414/461/121 426/474/121 427/475/121 415/462/121
f 415/463/132 427/476/132 428/477/132 416/464/132
f 416/464/131 428/477/131 429/478/131 417/465/131
f 417/465/130 429/478/130 430/479/130 418/466/130
f 418/466/129 430/479/129 431/480/129 419/467/129
f 419/467/128 431/480/128 432/481/128 420/468/128
f 420/468/127 432/481/127 421/469/127 409/456/127
f 421/469/138 433/482/138 434/483/138 422/470/138
f 422/470/137 434/483/137 435/484/137 423/471/137
f 423/471/136 435/484/136 436/485/136 424/472/136
f 424/472/135 436/485/135 437/486/135 425/473/135
f 425/473/134 437/486/134 438/487/134 426/474/134
f 426/474/133 438/487/133 439/488/133 427/475/133
f 427/476/144 439/489/144 440/490/144 428/477/144
f 428/477/143 440/490/143 441/491/143 429/478/143
f 429/478/142 441/491/142 442/492/142 430/479/142
f 430/479/141 442/492/141 443/493/141 431/480/141
f 431/480/140 443/493/140 444/494/140 432/481/140
f 432/481/139 444/494/139 433/482/139 421/469/139
f 433/482/150 445/495/150 446/496/150 434/483/150
f 434/483/149 446/496/149 447/497/149 435/484/149
f 435/484/148 447/497/148 448/498/148 436/485/148
f 436/485/147 448/498/147 449/499/147 437/486/147
f 437/486/146 449/499/146 450/500/146 438/487/146
f 438/487/145 450/500/145 451/501/145 439/488/145
f 439/489/156 451/502/156 452/503/156 440/490/156
f 440/490/155 452/503/155 453/504/155 441/491/155
f 441/491/154 453/504/154 454/505/154 442/492/154
f 442/492/153 454/505/153 455/506/153 443/493/153
f 443/493/152 455/506/152 456/507/152 444/494/152
f 444/494/151 456/507/151 445/495/151 433/482/151
f 445/495/162 457/508/162 458/509/162 446/496/162
f 446/496/161 458/509/161 459/510/161 447/497/161
f 447/497/160 459/510/160 460/511/160 448/498/160
f 448/498/159 460/511/159 461/512/159 449/499/159
f 449/499/158 461/512/158 462/513/158 450/500/158
f 450/500/157 462/513/157 463/514/157 451/501/157
f 451/502/168 463/515/168 464/516/168 452/503/168
f 452/503/167 464/516/167 465/517/167 453/504/167
f 453/504/166 465/517/166 466/518/166 454/505/166
f 454/505/165 466/518/165 467/519/165 455/506/165
f 455/506/164 467/519/164 468/520/164 456/507/164
f 456/507/163 468/520/163 457/508/163 445/495/163
f 457/508/174 469/521/174 470/522/174 458/509/174
f 458/509/173 470/522/173 471/523/173 459/510/173
f 459/510/172 471/523/172 472/524/172 460/511/172
f 460/511/171 472/524/171 473/525/171 461/512/171
f 461/512/170 473/525/170 474/526/170 462/513/170
f 462/513/169 474/526/169 475/527/169 463/514/169
f 463/515/180 475/528/180 476/529/180 464/516/180
f 464/516/179 476/529/179 477/530/179 465/517/179
f 465/517/178 477/530/178 478/531/178 466/518/178
f 466/518/177 478/531/177 479/532/177 467/519/177
f 467/519/176 479/532/176 480/533/176 468/520/176
f 468/520/175 480/533/175 469/521/175 457/508/175
f 469/521/186 481/534/186 482/535/186 470/522/186
f 470/522/185 482/535/185 483/536/185 471/523/185
f 471/523/184 483/536/184 484/537/184 472/524/184
f 472/524/183 484/537/183 485/538/183 473/525/183
f 473/525/182 485/538/182 486/539/182 474/526/182
f 474/526/181 486/539/181 487/540/181 475/527/181
f 475/528/192 487/541/192 488/542/192 476/529/192
f 476/529/191 488/542/191 489/543/191 477/530/191
f 477/530/190 489/543/190 490/544/190 478/531/190
f 478/531/189 490/544/189 491/545/189 479/532/189
f 479/532/188 491/545/188 492/546/188 480/533/188
f 480/533/187 492/546/187 481/534/187 469/521/187
f 481/534/198 493/547/198 494/548/198 482/535/198
f 482/535/197 494/548/197 495/549/197 483/536/197
f 483/536/196 495/549/196 496/550/196 484/537/196
f 484/537/195 496/550/195 497/551/195 485/538/195
f 485/538/194 497/551/194 498/552/194 486/539/194
f 486/539/193 498/552/193 499/553/193 487/540/193
f 487/541/204 499/554/204 500/555/204 488/542/204
f 488/542/203 500/555/203 501/556/203 489/543/203
f 489/543/202 501/556/202 502/557/202 490/544/202
f 490/544/201 502/557/201 503/558/201 491/545/201
f 491/545/200 503/558/200 504/559/200 492/546/200
f 492/546/199 504/559/199 493/547/199 481/534/199
f 493/547/210 505/560/210 506/561/210 494/548/210
f 494/548/209 506/561/209 507/562/209 495/549/209
f 495/549/208 507/562/208 508/563/208 496/550/208
f 496/550/207 508/563/207 509/564/207 497/551/207
f 497/551/206 509/564/206 510/565/206 498/552/206
f 498/552/205 510/565/205 511/566/205 499/553/205
f 499/554/216 511/567/216 512/568/216 500/555/216
f 500/555/215 512/568/215 513/569/215 501/556/215
f 501/556/214 513/569/214 514/570/214 502/557/214
f 502/557/213 514/570/213 515/571/213 503/558/213
f 503/558/212 515/571/212 516/572/212 504/559/212
f 504/559/211 516/572/211 505/560/211 493/547/211
f 505/560/222 517/573/222 518/574/222 506/561/222
f 506/561/221 518/574/221 519/575/221 507/562/221
f 507/562/220 519/575/220 520/576/220 508/563/220
f 508/563/219 520/576/219 521/577/219 509/564/219
f 509/564/218 521/577/218 522/578/218 510/565/218
f 510/565/217 522/578/217 523/579/217 511/566/217
f 511/567/228 523/580/228 524/581/228 512/568/228
f 512/568/227 524/581/227 525/582/227 513/569/227
f 513/569/226 525/582/226 526/583/226 514/570/226
f 514/570/225 526/583/225 527/584/225 515/571/225
f 515/571/224 527/584/224 528/585/224 516/572/224
f 516/572/223 528/585/223 517/573/223 505/560/223
f 517/573/234 529/586/234 530/587/234 518/574/234
f 518/574/233 530/587/233 531/588/233 519/575/233
f 519/575/232 531/588/232 532/589/232 520/576/232
f 520/576/231 532/589/231 533/590/231 521/577/231
f 521/577/230 533/590/230 534/591/230 522/578/230
f 522/578/229 534/591/229 535/592/229 523/579/229
f 523/580/240 535/593/240 536/594/240 524/581/240
f 524/581/239 536/594/239 537/595/239 525/582/239
f 525/582/238 537/595/238 538/596/238 526/583/238
f 526/583/237 538/596/237 539/597/237 527/584/237
f 527/584/236 539/597/236 540/598/236 528/585/236
f 528/585/235 540/598/235 529/586/235 517/573/235
f 529/586/246 541/599/246 542/600/246 530/587/246
f 530/587/245 542/600/245 543/601/245 531/588/245
f 531/588/244 543/601/244 544/602/244 532/589/244
f 532/589/243 544/602/243 545/603/243 533/590/243
f 533/590/242 545/603/242 546/604/242 534/591/242
f 534/591/241 546/604/241 547/605/241 535/592/241
f 535/593/252 547/606/252 548/607/252 536/594/252
f 536/594/251 548/607/251 549/608/251 537/595/251
f 537/595/250 549/608/250 550/609/250 538/596/250
f 538/596/249 550/609/249 551/610/249 539/597/249
f 539/597/248 551/610/248 552/611/248 540/598/248
f 540/598/247 552/611/247 541/599/247 529/586/247
f 541/599/258 553/612/258 554/613/258 542/600/258
f 542/600/257 554/613/257 555/614/257 543/601/257
f 543/601/256 555/614/256 556/615/256 544/602/256
f 544/602/255 556/615/255 557/616/255 545/603/255
f 545/603/254 557/616/254 558/617/254 546/604/254
f 546/604/253 558/617/253 559/618/253 547/605/253
f 547/606/264 559/619/264 560/620/264 548/607/264
f 548/607/263 560/620/263 561/621/263 549/608/263
f 549/608/262 561/621/262 562/622/262 550/609/262
f 550/609/261 562/622/261 563/623/261 551/610/261
f 551/610/260 563/623/260 564/624/260 552/611/260
f 552/611/259 564/624/259 553/612/259 541/599/259
f 553/612/270 565/625/270 566/626/270 554/613/270
f 554/613/269 566/626/269 567/627/269 555/614/269
f 555/614/268 567/627/268 568/628/268 556/615/268
f 556/615/267 568/628/267 569/629/267 557/616/267
f 557/616/266 569/629/266 570/630/266 558/617/266
f 558/617/265 570/630/265 571/631/265 559/618/265
f 559/619/276 571/632/276 572/633/276 560/620/276
f 560/620/275 572/633/275 573/634/275 561/621/275
f 561/621/274 573/634/274 574/635/274 562/622/274
f 562/622/273 574/635/273 575/636/273 563/623/273
f 563/623/272 575/636/272 576/637/272 564/624/272
f 564/624/271 576/637/271 565/625/271 553/612/271
f 565/625/282 1/1/282 2/4/282 566/626/282
f 566/626/281 2/4/281 3/6/281 567/627/281
f 567/627/280 3/6/280 4/8/280 568/628/280
f 568/628/279 4/8/279 5/10/279 569/629/279
f 569/629/278 5/10/278 6/12/278 570/630/278
f 570/630/277 6/12/277 7/14/277 571/631/277
f 571/632/288 7/15/288 8/18/288 572/633/288
f 572/633/287 8/18/287 9/20/287 573/634/287
f 573/634/286 9/20/286 10/22/286 574/635/286
f 574/635/285 10/22/285 11/24/285 575/636/285
f 575/636/284 11/24/284 12/26/284 576/637/284
f 576/637/283 12/26/283 1/1/283 565/625/283
